\relax 
\providecommand\hyper@newdestlabel[2]{}
\citation{Thorstensen2005}
\@writefile{toc}{\contentsline {chapter}{\numberline {5}Discussion and conclusions}{176}{chapter.318}\protected@file@percent }
\@writefile{lof}{\addvspace {10\p@ }}
\@writefile{lot}{\addvspace {10\p@ }}
\@writefile{toc}{\contentsline {section}{\numberline {5.1}Discussion}{176}{section.319}\protected@file@percent }
\@writefile{toc}{\contentsline {subsection}{\numberline {5.1.1}tMSPs}{176}{subsection.320}\protected@file@percent }
\@writefile{toc}{\contentsline {subsubsection}{Lessons for modelling}{176}{section*.321}\protected@file@percent }
\@writefile{toc}{\contentsline {subsubsection}{Intricacies of Icarus}{176}{section*.322}\protected@file@percent }
\@writefile{toc}{\contentsline {paragraph}{Distance and extinction}{176}{section*.323}\protected@file@percent }
\@writefile{toc}{\contentsline {paragraph}{Temperatures}{177}{section*.324}\protected@file@percent }
\citation{Kandel2020}
\@writefile{toc}{\contentsline {paragraph}{Spot constraints}{178}{section*.325}\protected@file@percent }
\citation{Mong2020}
\@writefile{toc}{\contentsline {subsection}{\numberline {5.1.2}GOTO}{179}{subsection.326}\protected@file@percent }
\@writefile{toc}{\contentsline {subsubsection}{Lessons for surveys}{179}{section*.327}\protected@file@percent }
\citation{VanderPlas2018}
\@writefile{toc}{\contentsline {subsubsection}{The importance of ancillary information}{180}{section*.328}\protected@file@percent }
\citation{Bloemen2015}
\citation{Roelfsema2016}
\citation{Groot2019}
\citation{Bloemen2016}
\citation{Keller2007}
\citation{Akhter2013}
\citation{Andreoni2020}
\@writefile{toc}{\contentsline {subsubsection}{Other surveys}{181}{section*.329}\protected@file@percent }
\citation{LSST2009}
\citation{Narayan2018}
\citation{Oluseyi2012}
\citation{Bellm2018}
\citation{Masci2019a}
\citation{Mong2020}
\citation{Killestein2021}
\@writefile{toc}{\contentsline {section}{\numberline {5.2}Conclusions}{183}{section.330}\protected@file@percent }
\@setckpt{Chapters/Conclusions}{
\setcounter{page}{185}
\setcounter{equation}{0}
\setcounter{enumi}{4}
\setcounter{enumii}{0}
\setcounter{enumiii}{0}
\setcounter{enumiv}{0}
\setcounter{footnote}{0}
\setcounter{mpfootnote}{0}
\setcounter{part}{0}
\setcounter{chapter}{5}
\setcounter{section}{2}
\setcounter{subsection}{0}
\setcounter{subsubsection}{0}
\setcounter{paragraph}{0}
\setcounter{subparagraph}{0}
\setcounter{figure}{0}
\setcounter{table}{0}
\setcounter{LT@tables}{1}
\setcounter{LT@chunks}{2}
\setcounter{caption@flags}{0}
\setcounter{ContinuedFloat}{0}
\setcounter{r@tfl@t}{6}
\setcounter{parentequation}{0}
\setcounter{subfigure}{0}
\setcounter{subtable}{0}
\setcounter{lstnumber}{1}
\setcounter{NAT@ctr}{0}
\setcounter{Item}{4}
\setcounter{Hfootnote}{5}
\setcounter{bookmark@seq@number}{140}
\setcounter{lstlisting}{0}
\setcounter{section@level}{1}
}
