\relax 
\providecommand\hyper@newdestlabel[2]{}
\citation{J1628-ray}
\citation{GAIAmission}
\citation{Gunn2006}
\citation{Shappee2014}
\citation{Jayasinghe2018}
\citation{Jayasinghe2018b}
\citation{Dyer2020}
\@writefile{toc}{\contentsline {chapter}{\numberline {4}Periodicity search and classification pipeline for GOTO}{125}{chapter.222}\protected@file@percent }
\@writefile{lof}{\addvspace {10\p@ }}
\@writefile{lot}{\addvspace {10\p@ }}
\newlabel{ch:goto}{{4}{125}{Periodicity search and classification pipeline for GOTO}{chapter.222}{}}
\@writefile{toc}{\contentsline {section}{\numberline {4.1}Introduction}{125}{section.223}\protected@file@percent }
\@writefile{toc}{\contentsline {subsection}{\numberline {4.1.1}Background}{125}{subsection.224}\protected@file@percent }
\citation{Mong2020,Killestein2021}
\citation{FERMI2020}
\citation{Dyer2020}
\citation{Gompertz2020}
\@writefile{toc}{\contentsline {subsection}{\numberline {4.1.2}The GOTO instrument}{126}{subsection.225}\protected@file@percent }
\citation{Dyer2020}
\citation{sextractor}
\citation{astrometrynet}
\citation{atlasrefcat}
\citation{hotpants}
\citation{Schlafly2011}
\citation{Linares2018}
\citation{Gompertz2020}
\citation{Jayasinghe2018}
\citation{Jayasinghe2018}
\citation{Chinarova2000}
\citation{Lebzelter1995}
\@writefile{toc}{\contentsline {subsection}{\numberline {4.1.3}Summary of the project}{128}{subsection.226}\protected@file@percent }
\@writefile{toc}{\contentsline {subsection}{\numberline {4.1.4}Introduction to star types}{128}{subsection.227}\protected@file@percent }
\@writefile{toc}{\contentsline {paragraph}{Semi-regular variable stars (SR)}{128}{section*.230}\protected@file@percent }
\@writefile{lof}{\contentsline {figure}{\numberline {4.1}{\ignorespaces Example light curve for each of the 8 star types considered in this work.}}{129}{figure.caption.229}\protected@file@percent }
\newlabel{fig:lcgrid}{{4.1}{129}{Example light curve for each of the 8 star types considered in this work}{figure.caption.229}{}}
\citation{Bedding1998}
\citation{Ireland2004}
\citation{Feast1989}
\citation{Chen2006a}
\citation{Giuricin1981}
\citation{Harmanec1993}
\citation{Jayasinghe2018}
\citation{Terrell2012}
\@writefile{lot}{\contentsline {table}{\numberline {4.1}{\ignorespaces ASAS-SN classes and descriptions, as described in \citet  {Jayasinghe2018}.}}{130}{table.caption.228}\protected@file@percent }
\newlabel{tab:star_types}{{4.1}{130}{ASAS-SN classes and descriptions, as described in \citet {Jayasinghe2018}}{table.caption.228}{}}
\@writefile{toc}{\contentsline {paragraph}{Mira Variables (M)}{130}{section*.231}\protected@file@percent }
\@writefile{toc}{\contentsline {paragraph}{Detached Algol binaries (EA)}{130}{section*.232}\protected@file@percent }
\@writefile{toc}{\contentsline {paragraph}{$\boldsymbol  {\beta }$ Lyrae binaries (EB)}{130}{section*.233}\protected@file@percent }
\citation{Dambis2013}
\citation{RRLyraebook,Bingham1984}
\citation{Jayasinghe2018}
\citation{Hall1992}
\citation{Boden2001}
\@writefile{toc}{\contentsline {paragraph}{W Ursae Majoris binaries (EW)}{131}{section*.234}\protected@file@percent }
\@writefile{toc}{\contentsline {paragraph}{RR Lyrae variables (RRC and RRAB)}{131}{section*.235}\protected@file@percent }
\@writefile{toc}{\contentsline {paragraph}{Spotted variables with rotation modulation (ROT)}{131}{section*.236}\protected@file@percent }
\@writefile{toc}{\contentsline {section}{\numberline {4.2}Data Acquisition}{131}{section.237}\protected@file@percent }
\@writefile{toc}{\contentsline {subsection}{\numberline {4.2.1}Simulation of GOTO data}{131}{subsection.238}\protected@file@percent }
\newlabel{sec:goto_sim2}{{4.2.1}{131}{Simulation of GOTO data}{subsection.238}{}}
\citation{GAIA2018}
\@writefile{lot}{\contentsline {table}{\numberline {4.2}{\ignorespaces Key GOTO light curve simulation parameters and descriptions.}}{133}{table.caption.239}\protected@file@percent }
\newlabel{table:sim_params}{{4.2}{133}{Key GOTO light curve simulation parameters and descriptions}{table.caption.239}{}}
\@writefile{lof}{\contentsline {figure}{\numberline {4.2}{\ignorespaces Synthetic GOTO light curve based on Fourier decomposition of ASAS-SN light curve, with residuals.}}{134}{figure.caption.240}\protected@file@percent }
\newlabel{fig:GotoSimFromAssn}{{4.2}{134}{Synthetic GOTO light curve based on Fourier decomposition of ASAS-SN light curve, with residuals}{figure.caption.240}{}}
\@writefile{toc}{\contentsline {subsection}{\numberline {4.2.2}Obtaining and reducing photometry}{134}{subsection.241}\protected@file@percent }
\newlabel{sec:GOTO_reduction}{{4.2.2}{134}{Obtaining and reducing photometry}{subsection.241}{}}
\@writefile{lof}{\contentsline {figure}{\numberline {4.3}{\ignorespaces Comparison of GAIA $G$-band and GOTO $L$-band magnitudes of 40,000 variables sources.}}{135}{figure.caption.242}\protected@file@percent }
\newlabel{fig:mag_comparison}{{4.3}{135}{Comparison of GAIA $G$-band and GOTO $L$-band magnitudes of 40,000 variables sources}{figure.caption.242}{}}
\@writefile{lof}{\contentsline {figure}{\numberline {4.4}{\ignorespaces Light curve with observations flagged by the ensemble clipping shown in red.}}{136}{figure.caption.243}\protected@file@percent }
\newlabel{fig:lc_clip}{{4.4}{136}{Light curve with observations flagged by the ensemble clipping shown in red}{figure.caption.243}{}}
\@writefile{toc}{\contentsline {section}{\numberline {4.3}Periodicity Searching}{137}{section.244}\protected@file@percent }
\newlabel{sec:goto_pipe}{{4.3}{137}{Periodicity Searching}{section.244}{}}
\@writefile{toc}{\contentsline {subsection}{\numberline {4.3.1}First-pass elimination of non-varying sources}{137}{subsection.245}\protected@file@percent }
\newlabel{sec:firstpass}{{4.3.1}{137}{First-pass elimination of non-varying sources}{subsection.245}{}}
\@writefile{lof}{\contentsline {figure}{\numberline {4.5}{\ignorespaces Performance of the first pass elimination with varying $\chi ^2$ cutoff value.}}{138}{figure.caption.246}\protected@file@percent }
\newlabel{fig:FPresults}{{4.5}{138}{Performance of the first pass elimination with varying $\chi ^2$ cutoff value}{figure.caption.246}{}}
\citation{Deeming1975}
\citation{Lomb1976}
\citation{Scargle1982}
\citation{Schwarzenberg1996}
\citation{Graham2013}
\citation{Graham2013b}
\citation{Mondrik2015}
\citation{VanderPlas2021}
\@writefile{lof}{\contentsline {figure}{\numberline {4.6}{\ignorespaces Left: unphased GOTO light curve, with flux in arbitrary units. Right: light curve phased at period.}}{139}{figure.caption.247}\protected@file@percent }
\newlabel{fig:GOTO-FN-lc}{{4.6}{139}{Left: unphased GOTO light curve, with flux in arbitrary units. Right: light curve phased at period}{figure.caption.247}{}}
\@writefile{toc}{\contentsline {subsection}{\numberline {4.3.2}Identifying periodic sources}{139}{subsection.248}\protected@file@percent }
\newlabel{sec:goto_psearch}{{4.3.2}{139}{Identifying periodic sources}{subsection.248}{}}
\@writefile{toc}{\contentsline {subsubsection}{Algorithm choices}{139}{section*.249}\protected@file@percent }
\citation{VanderPlas2015}
\citation{Schuster1898}
\citation{Lomb1976}
\citation{Scargle1982}
\@writefile{toc}{\contentsline {paragraph}{Generalised Lomb-Scargle periodogram}{140}{section*.250}\protected@file@percent }
\newlabel{eq:classper}{{4.1}{140}{Generalised Lomb-Scargle periodogram}{equation.251}{}}
\citation{Scargle1982}
\citation{VanderPlas2018}
\citation{Zechmeister2009,Cumming1999}
\newlabel{eq:normper}{{4.2}{141}{Generalised Lomb-Scargle periodogram}{equation.252}{}}
\citation{Shappee2014}
\citation{Mondrik2015}
\@writefile{toc}{\contentsline {paragraph}{Multi-harmonic analysis of variance (MHAOV)}{142}{section*.255}\protected@file@percent }
\newlabel{eq:anova1}{{4.3}{142}{Multi-harmonic analysis of variance (MHAOV)}{equation.256}{}}
\@writefile{lof}{\contentsline {figure}{\numberline {4.7}{\ignorespaces Histogram and success rate for the GLS algorithm.}}{143}{figure.caption.253}\protected@file@percent }
\newlabel{fig:gls_hist}{{4.7}{143}{Histogram and success rate for the GLS algorithm}{figure.caption.253}{}}
\@writefile{lof}{\contentsline {figure}{\numberline {4.8}{\ignorespaces Histogram and success rate for the MHAOV algorithm.}}{144}{figure.caption.254}\protected@file@percent }
\newlabel{fig:mhaov_hist}{{4.8}{144}{Histogram and success rate for the MHAOV algorithm}{figure.caption.254}{}}
\citation{SC1996}
\citation{Huijse2018}
\citation{Buhlmann2002,Suveges2012}
\citation{Mondrik2015}
\newlabel{eq:anova}{{4.4}{145}{Multi-harmonic analysis of variance (MHAOV)}{equation.257}{}}
\@writefile{toc}{\contentsline {paragraph}{Initial performance}{145}{section*.258}\protected@file@percent }
\citation{Huijse2018}
\citation{Baluev2013}
\citation{Suveges2012}
\citation{Fowler2003}
\citation{Sousa2011}
\@writefile{toc}{\contentsline {subsubsection}{Periodogram peak significance}{146}{section*.259}\protected@file@percent }
\newlabel{sec:goto_boot}{{4.3.2}{146}{Periodogram peak significance}{section*.259}{}}
\citation{Deeming1975}
\newlabel{eq:GEV}{{4.5}{147}{Periodogram peak significance}{equation.261}{}}
\@writefile{toc}{\contentsline {subsection}{\numberline {4.3.3}Algorithm performance}{147}{subsection.264}\protected@file@percent }
\newlabel{sec:psearch_perf}{{4.3.3}{147}{Algorithm performance}{subsection.264}{}}
\@writefile{lof}{\contentsline {figure}{\numberline {4.9}{\ignorespaces Fitted GEV distribution for a light curve observed by GOTO.}}{148}{figure.caption.262}\protected@file@percent }
\newlabel{fig:GEVpdf}{{4.9}{148}{Fitted GEV distribution for a light curve observed by GOTO}{figure.caption.262}{}}
\@writefile{lof}{\contentsline {figure}{\numberline {4.10}{\ignorespaces MHAOV periodogram (left) and GOTO light curve folded at the best period (right) for a test GOTO source.}}{148}{figure.caption.263}\protected@file@percent }
\newlabel{fig:GEVlc}{{4.10}{148}{MHAOV periodogram (left) and GOTO light curve folded at the best period (right) for a test GOTO source}{figure.caption.263}{}}
\@writefile{toc}{\contentsline {subsubsection}{Aliasing and jitter}{148}{section*.265}\protected@file@percent }
\newlabel{sec:jitter}{{4.3.3}{148}{Aliasing and jitter}{section*.265}{}}
\citation{Jayasinghe2018b}
\@writefile{lof}{\contentsline {figure}{\numberline {4.11}{\ignorespaces Window function for a sample GOTO light curve with the median number of samples, 43.}}{149}{figure.caption.266}\protected@file@percent }
\newlabel{fig:windowfunc}{{4.11}{149}{Window function for a sample GOTO light curve with the median number of samples, 43}{figure.caption.266}{}}
\citation{Fruchter1988}
\@writefile{lof}{\contentsline {figure}{\numberline {4.12}{\ignorespaces Window function of an ASAS-SN light curve with the median number of samples, 201.}}{150}{figure.caption.267}\protected@file@percent }
\newlabel{fig:asswindow}{{4.12}{150}{Window function of an ASAS-SN light curve with the median number of samples, 201}{figure.caption.267}{}}
\@writefile{lof}{\contentsline {figure}{\numberline {4.13}{\ignorespaces Periodogram and folded GOTO light curve of a variable source.}}{151}{figure.caption.268}\protected@file@percent }
\newlabel{fig:21-periodogram}{{4.13}{151}{Periodogram and folded GOTO light curve of a variable source}{figure.caption.268}{}}
\@writefile{toc}{\contentsline {subsubsection}{Testing data}{151}{section*.270}\protected@file@percent }
\@writefile{toc}{\contentsline {subsubsection}{Factors influencing period recovery}{151}{section*.272}\protected@file@percent }
\newlabel{sec:lcshape}{{4.3.3}{151}{Factors influencing period recovery}{section*.272}{}}
\@writefile{toc}{\contentsline {paragraph}{Light curve shape}{151}{section*.273}\protected@file@percent }
\@writefile{lof}{\contentsline {figure}{\numberline {4.14}{\ignorespaces Relationship between jitter and period recovery for synthetic light curves.}}{152}{figure.caption.269}\protected@file@percent }
\newlabel{fig:jitter}{{4.14}{152}{Relationship between jitter and period recovery for synthetic light curves}{figure.caption.269}{}}
\@writefile{lot}{\contentsline {table}{\numberline {4.3}{\ignorespaces Percentage of sources with period recovered to $<1$\% of true period.}}{152}{table.caption.271}\protected@file@percent }
\newlabel{table:psearch_scores1}{{4.3}{152}{Percentage of sources with period recovered to $<1$\% of true period}{table.caption.271}{}}
\citation{Reimann1994,VanderPlas2015}
\@writefile{lof}{\contentsline {figure}{\numberline {4.15}{\ignorespaces Percentage of periods recovered using the MHAOV algorithm to within 1\% of the true period for 1600 sources, separated by star type.}}{154}{figure.caption.275}\protected@file@percent }
\newlabel{fig:mhaov_star_types}{{4.15}{154}{Percentage of periods recovered using the MHAOV algorithm to within 1\% of the true period for 1600 sources, separated by star type}{figure.caption.275}{}}
\@writefile{toc}{\contentsline {section}{\numberline {4.4}Classification of periodic sources}{154}{section.277}\protected@file@percent }
\@writefile{lof}{\contentsline {figure}{\numberline {4.16}{\ignorespaces EW type binary, from top left clockwise: unphased light curve, phased at ASAS-SN period, phased at GLS period, phased at MHAOV period.}}{155}{figure.caption.276}\protected@file@percent }
\newlabel{fig:ew_phase_fold.pdf}{{4.16}{155}{EW type binary, from top left clockwise: unphased light curve, phased at ASAS-SN period, phased at GLS period, phased at MHAOV period}{figure.caption.276}{}}
\citation{Schwarz1978}
\@writefile{toc}{\contentsline {subsection}{\numberline {4.4.1}Light curve modelling}{156}{subsection.279}\protected@file@percent }
\newlabel{sec:harmonicdecomp}{{4.4.1}{156}{Light curve modelling}{subsection.279}{}}
\newlabel{eqn:costfn}{{4.8}{156}{Light curve modelling}{equation.282}{}}
\newlabel{eq:Weighting1}{{4.13}{157}{Light curve modelling}{equation.287}{}}
\newlabel{eqn:crit2}{{4.14}{157}{Light curve modelling}{equation.288}{}}
\citation{Mahabal2017}
\citation{scikit-learn}
\citation{Shappee2014,Jayasinghe2018}
\citation{GAIAmission}
\citation{GAIA2018}
\citation{Jayasinghe2018b}
\@writefile{toc}{\contentsline {subsection}{\numberline {4.4.2}The Random Forest classifier}{158}{subsection.289}\protected@file@percent }
\newlabel{sec:mlsets}{{4.4.2}{158}{The Random Forest classifier}{subsection.289}{}}
\@writefile{toc}{\contentsline {subsubsection}{Training and testing datasets}{158}{section*.290}\protected@file@percent }
\@writefile{toc}{\contentsline {paragraph}{ASAS-SN training data and classifier features}{158}{section*.291}\protected@file@percent }
\citation{Jayasinghe2018}
\citation{Breiman2001}
\@writefile{lof}{\contentsline {figure}{\numberline {4.17}{\ignorespaces Positions of ASAS-SN (black cross) and GOTO (red dot) sources in a field of radius 1 degree.}}{159}{figure.caption.292}\protected@file@percent }
\newlabel{fig:goto_matches_single_field}{{4.17}{159}{Positions of ASAS-SN (black cross) and GOTO (red dot) sources in a field of radius 1 degree}{figure.caption.292}{}}
\@writefile{toc}{\contentsline {paragraph}{GOTO testing data and source matching}{159}{section*.293}\protected@file@percent }
\@writefile{lof}{\contentsline {figure}{\numberline {4.18}{\ignorespaces Normalised histograms illustrating magnitude distributions of three data sets.}}{161}{figure.caption.294}\protected@file@percent }
\newlabel{fig:mag_hist}{{4.18}{161}{Normalised histograms illustrating magnitude distributions of three data sets}{figure.caption.294}{}}
\citation{Breiman2001}
\citation{WISE,2MASS}
\citation{Madore1982,Lebzelter2018,Jayasinghe2018b}
\@writefile{toc}{\contentsline {subsection}{\numberline {4.4.3}Classifier analysis}{162}{subsection.295}\protected@file@percent }
\@writefile{toc}{\contentsline {subsubsection}{Feature importance}{162}{section*.296}\protected@file@percent }
\newlabel{sec:feature_importance}{{4.4.3}{162}{Feature importance}{section*.296}{}}
\@writefile{lof}{\contentsline {figure}{\numberline {4.19}{\ignorespaces Feature importances of the final classifier.}}{163}{figure.caption.297}\protected@file@percent }
\newlabel{fig:importances}{{4.19}{163}{Feature importances of the final classifier}{figure.caption.297}{}}
\@writefile{toc}{\contentsline {subsubsection}{Classifier performance}{163}{section*.299}\protected@file@percent }
\newlabel{sec:classifierperformance}{{4.4.3}{163}{Classifier performance}{section*.299}{}}
\@writefile{lof}{\contentsline {figure}{\numberline {4.20}{\ignorespaces Feature importances of the original classifier, including all colour terms.}}{164}{figure.caption.298}\protected@file@percent }
\newlabel{fig:importances_assn}{{4.20}{164}{Feature importances of the original classifier, including all colour terms}{figure.caption.298}{}}
\@writefile{lof}{\contentsline {figure}{\numberline {4.21}{\ignorespaces Confusion matrix for the Random Forest classifier.}}{165}{figure.caption.300}\protected@file@percent }
\newlabel{fig:confusion}{{4.21}{165}{Confusion matrix for the Random Forest classifier}{figure.caption.300}{}}
\@writefile{toc}{\contentsline {paragraph}{Semi-regular variables}{165}{section*.302}\protected@file@percent }
\newlabel{RF6}{166}
\@writefile{lot}{\contentsline {table}{\numberline {4.4}{\ignorespaces Summary of results from classifier.}}{166}{table.caption.301}\protected@file@percent }
\newlabel{table:ml_results}{{4.4}{166}{Summary of results from classifier}{table.caption.301}{}}
\citation{Jayasinghe2018b}
\citation{Percy1999}
\@writefile{lof}{\contentsline {figure}{\numberline {4.22}{\ignorespaces Colour-magnitude plot showing the locations of sources in the training set.}}{167}{figure.caption.303}\protected@file@percent }
\newlabel{fig:col-mag}{{4.22}{167}{Colour-magnitude plot showing the locations of sources in the training set}{figure.caption.303}{}}
\citation{Jayasinghe2018b}
\@writefile{lof}{\contentsline {figure}{\numberline {4.23}{\ignorespaces Colour-period plot showing the locations of sources in the training set.}}{168}{figure.caption.304}\protected@file@percent }
\newlabel{fig:col-per}{{4.23}{168}{Colour-period plot showing the locations of sources in the training set}{figure.caption.304}{}}
\@writefile{toc}{\contentsline {paragraph}{W Ursae Majoris-type binaries}{168}{section*.305}\protected@file@percent }
\@writefile{lof}{\contentsline {figure}{\numberline {4.24}{\ignorespaces Period-magnitude plot showing the locations of sources in the training set.}}{169}{figure.caption.306}\protected@file@percent }
\newlabel{fig:per-mag}{{4.24}{169}{Period-magnitude plot showing the locations of sources in the training set}{figure.caption.306}{}}
\@writefile{toc}{\contentsline {paragraph}{Spotted variables}{169}{section*.307}\protected@file@percent }
\@writefile{toc}{\contentsline {subsubsection}{Absolute magnitude}{169}{section*.308}\protected@file@percent }
\@writefile{lof}{\contentsline {figure}{\numberline {4.25}{\ignorespaces Period-absolute magnitude plot showing the locations of sources in the training set.}}{170}{figure.caption.309}\protected@file@percent }
\newlabel{fig:per-abs}{{4.25}{170}{Period-absolute magnitude plot showing the locations of sources in the training set}{figure.caption.309}{}}
\@writefile{toc}{\contentsline {subsubsection}{Removal of light curves}{170}{section*.310}\protected@file@percent }
\@writefile{lof}{\contentsline {figure}{\numberline {4.26}{\ignorespaces Normalised confusion matrix for classifier without light curves harmonics as features.}}{171}{figure.caption.311}\protected@file@percent }
\newlabel{fig:conf_nolc}{{4.26}{171}{Normalised confusion matrix for classifier without light curves harmonics as features}{figure.caption.311}{}}
\@writefile{toc}{\contentsline {subsubsection}{Classification of ASAS-SN light curves}{172}{section*.312}\protected@file@percent }
\newlabel{sec:assn_perfomance}{{4.4.3}{172}{Classification of ASAS-SN light curves}{section*.312}{}}
\@writefile{lof}{\contentsline {figure}{\numberline {4.27}{\ignorespaces Normalised confusion matrix for classifier trained and tested on the ASAS-SN dataset, including full colour information and original ASAS-SN light curves.}}{173}{figure.caption.313}\protected@file@percent }
\newlabel{fig:assn-cm}{{4.27}{173}{Normalised confusion matrix for classifier trained and tested on the ASAS-SN dataset, including full colour information and original ASAS-SN light curves}{figure.caption.313}{}}
\@writefile{lof}{\contentsline {figure}{\numberline {4.28}{\ignorespaces ASAS-SN $V$-band light curve of a randomly selected EA (Algol-type) variable.}}{174}{figure.caption.314}\protected@file@percent }
\newlabel{fig:EA_lc}{{4.28}{174}{ASAS-SN $V$-band light curve of a randomly selected EA (Algol-type) variable}{figure.caption.314}{}}
\@writefile{lof}{\contentsline {figure}{\numberline {4.29}{\ignorespaces ASAS-SN $V$-band light curve of a randomly selected EB ($\beta $ Lyrae-type) variable.}}{174}{figure.caption.315}\protected@file@percent }
\newlabel{fig:EB_lc}{{4.29}{174}{ASAS-SN $V$-band light curve of a randomly selected EB ($\beta $ Lyrae-type) variable}{figure.caption.315}{}}
\@writefile{lof}{\contentsline {figure}{\numberline {4.30}{\ignorespaces ASAS-SN $V$-band light curve of a randomly selected EW (W Ursae Majoris-type) variable.}}{175}{figure.caption.316}\protected@file@percent }
\newlabel{fig:EW_lc}{{4.30}{175}{ASAS-SN $V$-band light curve of a randomly selected EW (W Ursae Majoris-type) variable}{figure.caption.316}{}}
\@writefile{lof}{\contentsline {figure}{\numberline {4.31}{\ignorespaces ASAS-SN $V$-band light curve of a randomly selected ROT (spotted variable) variable.}}{175}{figure.caption.317}\protected@file@percent }
\newlabel{fig:ROT_lc}{{4.31}{175}{ASAS-SN $V$-band light curve of a randomly selected ROT (spotted variable) variable}{figure.caption.317}{}}
\@setckpt{Chapters/goto}{
\setcounter{page}{176}
\setcounter{equation}{14}
\setcounter{enumi}{4}
\setcounter{enumii}{0}
\setcounter{enumiii}{0}
\setcounter{enumiv}{0}
\setcounter{footnote}{3}
\setcounter{mpfootnote}{0}
\setcounter{part}{0}
\setcounter{chapter}{4}
\setcounter{section}{4}
\setcounter{subsection}{3}
\setcounter{subsubsection}{0}
\setcounter{paragraph}{0}
\setcounter{subparagraph}{0}
\setcounter{figure}{31}
\setcounter{table}{4}
\setcounter{LT@tables}{1}
\setcounter{LT@chunks}{2}
\setcounter{caption@flags}{0}
\setcounter{ContinuedFloat}{0}
\setcounter{r@tfl@t}{6}
\setcounter{parentequation}{0}
\setcounter{subfigure}{0}
\setcounter{subtable}{0}
\setcounter{lstnumber}{1}
\setcounter{NAT@ctr}{0}
\setcounter{Item}{4}
\setcounter{Hfootnote}{5}
\setcounter{bookmark@seq@number}{130}
\setcounter{lstlisting}{0}
\setcounter{section@level}{3}
}
