\relax 
\providecommand\hyper@newdestlabel[2]{}
\citation{Alpar1982}
\citation{Breton2013,Roberts2011}
\citation{Britt2017}
\citation{Jaodand2016}
\citation{Patruno2014,Linares2014}
\citation{Kennedy2018}
\citation{Archibald2009,Bassa2014}
\citation{Archibald2009,Patruno2014}
\@writefile{toc}{\contentsline {chapter}{\numberline {3}Optical photometry of two millisecond pulsars}{79}{chapter.161}\protected@file@percent }
\@writefile{lof}{\addvspace {10\p@ }}
\@writefile{lot}{\addvspace {10\p@ }}
\newlabel{ch:tmsps}{{3}{79}{Optical photometry of two millisecond pulsars}{chapter.161}{}}
\@writefile{toc}{\contentsline {section}{\numberline {3.1}Introduction}{79}{section.162}\protected@file@percent }
\citation{Chen2013}
\citation{Konar1997,Cumming2001}
\citation{Archibald2009}
\citation{DeFalco2017}
\citation{Strader2016,Kennedy2020}
\citation{Bonnet2012,deMartino2012}
\citation{Bogdanov2014,Bassa2014}
\citation{Roy2015}
\citation{Johnson2015}
\citation{Archibald2009,Wang2009}
\citation{Stappers2014}
\citation{Patruno2014}
\citation{Kennedy2018,Papitto2018}
\citation{Dhilon2007}
\citation{Dhillon2018}
\@writefile{lof}{\contentsline {figure}{\numberline {3.1}{\ignorespaces Phased light curve of J1227, repeated for clarity, with each colour corresponding to a different filter as in the legend. The asymmetry can clearly be seen in the i$_{\rm  s}$\ and g$_{\rm  s}$\ bands around phase 0.75. At phase 0.6, the effect of the sun rising, particularly so in the u$_{\rm  s}$\ band. The bottom panel shows the colour information. We adopt the pulsar phase 0 convention.\relax }}{82}{figure.caption.163}\protected@file@percent }
\newlabel{fig:J1227_lc}{{3.1}{82}{Phased light curve of J1227, repeated for clarity, with each colour corresponding to a different filter as in the legend. The asymmetry can clearly be seen in the i$_{\rm s}$\ and g$_{\rm s}$\ bands around phase 0.75. At phase 0.6, the effect of the sun rising, particularly so in the u$_{\rm s}$\ band. The bottom panel shows the colour information. We adopt the pulsar phase 0 convention.\relax }{figure.caption.163}{}}
\@writefile{toc}{\contentsline {section}{\numberline {3.2}Optical Observations}{82}{section.164}\protected@file@percent }
\@writefile{toc}{\contentsline {subsection}{\numberline {3.2.1}ULTRACAM on the NTT}{82}{subsection.165}\protected@file@percent }
\newlabel{sec:UCAMNTT}{{3.2.1}{82}{ULTRACAM on the NTT}{subsection.165}{}}
\citation{HoneyCutt1992}
\citation{Roy2015}
\@writefile{lof}{\contentsline {figure}{\numberline {3.2}{\ignorespaces Phased light curve of J1023, clearly showing the asymmetry around phase 0.75. Similarly to J1227, this asymmetry is more pronounced in the i' and g' bands. Note that the artefacts around phase 0.8-0.9 are due to poor seeing conditions.\relax }}{83}{figure.caption.166}\protected@file@percent }
\newlabel{fig:J1023_lc}{{3.2}{83}{Phased light curve of J1023, clearly showing the asymmetry around phase 0.75. Similarly to J1227, this asymmetry is more pronounced in the i' and g' bands. Note that the artefacts around phase 0.8-0.9 are due to poor seeing conditions.\relax }{figure.caption.166}{}}
\@writefile{toc}{\contentsline {subsection}{\numberline {3.2.2}Observations of J1227}{83}{subsection.168}\protected@file@percent }
\newlabel{sec:J1227obs}{{3.2.2}{83}{Observations of J1227}{subsection.168}{}}
\@writefile{lot}{\contentsline {table}{\numberline {3.1}{\ignorespaces Table of observations of J1227 and J1023. Information gathered from ULTRACAM online logs. The seeing for the observations of J1023 were not recorded by the observers. From the observer comments, we note cloudy conditions on 2010-05-05, 2020-01-27, and 2020-01-28. Further to the co-adds shown here, no further binning in time was performed during reduction.\relax }}{84}{table.caption.167}\protected@file@percent }
\newlabel{table:observations}{{3.1}{84}{Table of observations of J1227 and J1023. Information gathered from ULTRACAM online logs. The seeing for the observations of J1023 were not recorded by the observers. From the observer comments, we note cloudy conditions on 2010-05-05, 2020-01-27, and 2020-01-28. Further to the co-adds shown here, no further binning in time was performed during reduction.\relax }{table.caption.167}{}}
\@writefile{toc}{\contentsline {subsection}{\numberline {3.2.3}Observations of J1023}{85}{subsection.169}\protected@file@percent }
\newlabel{sec:J1023obs}{{3.2.3}{85}{Observations of J1023}{subsection.169}{}}
\citation{Li2014}
\citation{Shahbaz2019}
\citation{McConnell2018}
\citation{Shahbaz2019}
\citation{McConnell2018}
\citation{Schroeder2014}
\@writefile{toc}{\contentsline {subsection}{\numberline {3.2.4}Radial Velocities}{86}{subsection.170}\protected@file@percent }
\newlabel{sec:radvel}{{3.2.4}{86}{Radial Velocities}{subsection.170}{}}
\citation{Romani2016}
\citation{Kandel2020}
\citation{Zilles2020}
\citation{Komacek2020,Jackson2019}
\citation{Martin1995}
\citation{Voisin2020}
\citation{deWit2012}
\citation{Demory2013}
\@writefile{toc}{\contentsline {section}{\numberline {3.3}Asymmetries}{87}{section.171}\protected@file@percent }
\newlabel{sec:asymm}{{3.3}{87}{Asymmetries}{section.171}{}}
\citation{Breton2012}
\citation{Lucy1967}
\@writefile{toc}{\contentsline {section}{\numberline {3.4}Numerical Modelling}{88}{section.173}\protected@file@percent }
\newlabel{sec:numericalmodelling}{{3.4}{88}{Numerical Modelling}{section.173}{}}
\@writefile{toc}{\contentsline {subsection}{\numberline {3.4.1}Icarus}{88}{subsection.174}\protected@file@percent }
\newlabel{sec:icarus}{{3.4.1}{88}{Icarus}{subsection.174}{}}
\@writefile{lof}{\contentsline {figure}{\numberline {3.3}{\ignorespaces \textit  {Top: } i$_{\rm  s}$, g$_{\rm  s}$, and u$_{\rm  s}$\ light curves of J1023 overlayed with the same light curves mirrored about phase 0.5, illustrating the asymmetries. \textit  {Bottom: } Estimated residuals between original and mirrored light curves, normalised to the peak band flux. The mirrored light curve was interpolated over the original phases in order to calculate these residuals. \relax }}{89}{figure.caption.172}\protected@file@percent }
\newlabel{fig:symmetriesJ1023}{{3.3}{89}{\textit {Top: } i$_{\rm s}$, g$_{\rm s}$, and u$_{\rm s}$\ light curves of J1023 overlayed with the same light curves mirrored about phase 0.5, illustrating the asymmetries. \textit {Bottom: } Estimated residuals between original and mirrored light curves, normalised to the peak band flux. The mirrored light curve was interpolated over the original phases in order to calculate these residuals. \relax }{figure.caption.172}{}}
\citation{Roy2015}
\citation{Archibald2009}
\newlabel{eq:qFromK}{{3.1}{90}{Icarus}{equation.175}{}}
\citation{Feroz2009}
\citation{Buchner2014}
\citation{deMartino2014}
\citation{deMartino2015}
\citation{Luri2018}
\citation{Leavin2013}
\citation{deMartino2014}
\citation{Wade1988}
\@writefile{toc}{\contentsline {subsection}{\numberline {3.4.2}Standard heating model}{91}{subsection.176}\protected@file@percent }
\newlabel{sec:symmmodel}{{3.4.2}{91}{Standard heating model}{subsection.176}{}}
\citation{Roy2015}
\citation{Deller2012}
\citation{Thorstensen2005}
\citation{Deller2012}
\citation{Shahbaz2019}
\citation{deMartino2014}
\citation{deMartino2010}
\citation{Cardelli1989}
\citation{Shahbaz2015}
\citation{Green2018}
\citation{Schlafly2011}
\citation{Shahbaz2017,Romani2016}
\@writefile{toc}{\contentsline {subsection}{\numberline {3.4.3}Single-spot heating model}{93}{subsection.179}\protected@file@percent }
\newlabel{sec:spotmodel}{{3.4.3}{93}{Single-spot heating model}{subsection.179}{}}
\citation{Shahbaz2019}
\citation{Shahbaz2019}
\citation{Voisin2020}
\citation{KandelRomani2020}
\@writefile{toc}{\contentsline {subsection}{\numberline {3.4.4}Heat Redistribution}{94}{subsection.181}\protected@file@percent }
\newlabel{sec:hr}{{3.4.4}{94}{Heat Redistribution}{subsection.181}{}}
\@writefile{lof}{\contentsline {figure}{\numberline {3.4}{\ignorespaces Radial velocity fitting curve for J1023. The points in blue are the radial velocity measurements from spectroscopy \citep  {Shahbaz2019}, and in red is the best-fitting radial velocity curve from Icarus. The red RV curve is calculated at each step in the multinest and the $\chi ^2$ value from the fit to the data is added to the posterior distribution. $K_{\rm  eff}$ is the effective centre-of-light radial velocity of the companion.\relax }}{95}{figure.caption.180}\protected@file@percent }
\newlabel{fig:mcmc18-keff}{{3.4}{95}{Radial velocity fitting curve for J1023. The points in blue are the radial velocity measurements from spectroscopy \citep {Shahbaz2019}, and in red is the best-fitting radial velocity curve from Icarus. The red RV curve is calculated at each step in the multinest and the $\chi ^2$ value from the fit to the data is added to the posterior distribution. $K_{\rm eff}$ is the effective centre-of-light radial velocity of the companion.\relax }{figure.caption.180}{}}
\citation{Voisin2020}
\citation{KandelRomani2020}
\@writefile{toc}{\contentsline {section}{\numberline {3.5}Results}{96}{section.183}\protected@file@percent }
\newlabel{sec:results}{{3.5}{96}{Results}{section.183}{}}
\@writefile{toc}{\contentsline {subsection}{\numberline {3.5.1}J1227}{96}{subsection.184}\protected@file@percent }
\newlabel{sec:J1227results}{{3.5.1}{96}{J1227}{subsection.184}{}}
\@writefile{lof}{\contentsline {figure}{\numberline {3.5}{\ignorespaces \textit  {Left: }i$_{\rm  s}$, g$_{\rm  s}$, and u$_{\rm  s}$\ light curves of J1227 overlayed with the best fit hot spot model. \textit  {Right: } Temperature distribution of companion - note that the system appears completely edge-on in this model. \relax }}{97}{figure.caption.185}\protected@file@percent }
\newlabel{fig:J1227HRFit}{{3.5}{97}{\textit {Left: }i$_{\rm s}$, g$_{\rm s}$, and u$_{\rm s}$\ light curves of J1227 overlayed with the best fit hot spot model. \textit {Right: } Temperature distribution of companion - note that the system appears completely edge-on in this model. \relax }{figure.caption.185}{}}
\newlabel{table:J1227}{{\caption@xref {table:J1227}{ on input line 325}}{98}{J1227}{table.caption.186}{}}
\@writefile{lot}{\contentsline {table}{\numberline {3.2}{\ignorespaces Numerical results for the modelling of J1227; including from top to bottom the model parameters, selected derived parameters, and model statistics. From left to right; standard symmetric model, single hot spot model, \leavevmode {\color {red}heat redistribution with linear diffusion and constant advection profile (HR1) - need to update}, heat redistribution with convection only (HR2). $\qopname  \relax o{log}Z$ is the natural logarithm of the model evidence. Note that the inclination of the symmetrical model is higher than the others as the constraint described in section\ref  {sec:J1227symresults} is not applied.\relax }}{98}{table.caption.186}\protected@file@percent }
\newlabel{table:J1227}{{3.2}{98}{Numerical results for the modelling of J1227; including from top to bottom the model parameters, selected derived parameters, and model statistics. From left to right; standard symmetric model, single hot spot model, \textcolor {red}{heat redistribution with linear diffusion and constant advection profile (HR1) - need to update}, heat redistribution with convection only (HR2). $\log Z$ is the natural logarithm of the model evidence. Note that the inclination of the symmetrical model is higher than the others as the constraint described in section\ref {sec:J1227symresults} is not applied.\relax }{table.caption.186}{}}
\citation{deMartino2020}
\citation{deMartino2015}
\@writefile{toc}{\contentsline {subsubsection}{Standard model}{99}{section*.187}\protected@file@percent }
\newlabel{sec:J1227symresults}{{3.5.1}{99}{Standard model}{section*.187}{}}
\citation{deMartino2014}
\citation{deMartino2014}
\citation{deMartino2014}
\citation{deMartino2014}
\@writefile{toc}{\contentsline {subsubsection}{Hot spot model}{100}{section*.188}\protected@file@percent }
\@writefile{toc}{\contentsline {subsubsection}{Modelling with fixed inclination}{101}{section*.189}\protected@file@percent }
\newlabel{sec:J1227fixed}{{3.5.1}{101}{Modelling with fixed inclination}{section*.189}{}}
\@writefile{lof}{\contentsline {figure}{\numberline {3.6}{\ignorespaces The mass ratio calculated from the centre-of-light $K_{\rm  eff}$ value, in red, provides us with a lower limit of the pulsar mass for each inclination, while the best-fit mass ratio from each fit's $K_2$ is in green. The mass function at each inclination is shown by the series of blue dashed lines, with the absolute limit at $i=90$\textdegree \ shown by a solid black line. As such, the excluded region of the plot is in white. The shaded contour in the allowed region shows an interpolation of the likelihood of the distance at each of the inclinations.\relax }}{102}{figure.caption.190}\protected@file@percent }
\newlabel{fig:J1227-massmass}{{3.6}{102}{The mass ratio calculated from the centre-of-light $K_{\rm eff}$ value, in red, provides us with a lower limit of the pulsar mass for each inclination, while the best-fit mass ratio from each fit's $K_2$ is in green. The mass function at each inclination is shown by the series of blue dashed lines, with the absolute limit at $i=90$\textdegree \ shown by a solid black line. As such, the excluded region of the plot is in white. The shaded contour in the allowed region shows an interpolation of the likelihood of the distance at each of the inclinations.\relax }{figure.caption.190}{}}
\@writefile{toc}{\contentsline {subsubsection}{Cold Spots}{103}{section*.192}\protected@file@percent }
\newlabel{sec:J1227coldspots}{{3.5.1}{103}{Cold Spots}{section*.192}{}}
\citation{deMartino2014}
\newlabel{table:inclination_results}{{\caption@xref {table:inclination_results}{ on input line 453}}{104}{Modelling with fixed inclination}{table.caption.191}{}}
\@writefile{lot}{\contentsline {table}{\numberline {3.3}{\ignorespaces Model parameters and multinest evidence for fixed-inclination modelling of J1227 at $i=50\text  {\textdegree , }60\text  {\textdegree , }70\text  {\textdegree }$\relax }}{104}{table.caption.191}\protected@file@percent }
\newlabel{table:inclination_results}{{3.3}{104}{Model parameters and multinest evidence for fixed-inclination modelling of J1227 at $i=50\text {\textdegree , }60\text {\textdegree , }70\text {\textdegree }$\relax }{table.caption.191}{}}
\@writefile{toc}{\contentsline {subsubsection}{Heat redistribution}{104}{section*.193}\protected@file@percent }
\@writefile{toc}{\contentsline {subsubsection}{Modelling assuming a filled Roche Lobe}{104}{section*.194}\protected@file@percent }
\newlabel{sec:J1227fixedRL}{{3.5.1}{104}{Modelling assuming a filled Roche Lobe}{section*.194}{}}
\citation{Archibald2009}
\citation{Deller2012}
\citation{Deller2012}
\citation{Archibald2009}
\citation{Shahbaz2019}
\@writefile{toc}{\contentsline {subsection}{\numberline {3.5.2}J1023}{105}{subsection.196}\protected@file@percent }
\newlabel{sec:J1023results}{{3.5.2}{105}{J1023}{subsection.196}{}}
\@writefile{toc}{\contentsline {subsubsection}{Standard Model}{105}{section*.197}\protected@file@percent }
\newlabel{sec:J1023symresults}{{3.5.2}{105}{Standard Model}{section*.197}{}}
\newlabel{tab:J1023spot}{{\caption@xref {tab:J1023spot}{ on input line 512}}{106}{Modelling assuming a filled Roche Lobe}{table.caption.195}{}}
\@writefile{lot}{\contentsline {table}{\numberline {3.4}{\ignorespaces Numerical results for the modelling of J1023; including from top to bottom the model parameters, selected derived parameters, and model statistics. From left to right; standard symmetric model, single hot spot model, heat redistribution with linear diffusion and constant advection profile (HR1), and heat redistribution with convection only (HR2). Note the similarity between the blackbody temperatures of each model, despite the large range of $T_0$ and $T_{\rm  irr}$ temperatures. \relax }}{106}{table.caption.195}\protected@file@percent }
\newlabel{table:J1023spot}{{3.4}{106}{Numerical results for the modelling of J1023; including from top to bottom the model parameters, selected derived parameters, and model statistics. From left to right; standard symmetric model, single hot spot model, heat redistribution with linear diffusion and constant advection profile (HR1), and heat redistribution with convection only (HR2). Note the similarity between the blackbody temperatures of each model, despite the large range of $T_0$ and $T_{\rm irr}$ temperatures. \relax }{table.caption.195}{}}
\citation{Archibald2009}
\citation{Deller2012}
\citation{Kandel2020}
\citation{Deller2012}
\@writefile{toc}{\contentsline {subsubsection}{Hot spot model}{107}{section*.199}\protected@file@percent }
\newlabel{sec:J1023spotresults}{{3.5.2}{107}{Hot spot model}{section*.199}{}}
\@writefile{toc}{\contentsline {subsubsection}{Modelling with fixed mass}{107}{section*.200}\protected@file@percent }
\newlabel{sec:J1023fixed}{{3.5.2}{107}{Modelling with fixed mass}{section*.200}{}}
\@writefile{lof}{\contentsline {figure}{\numberline {3.7}{\ignorespaces \textit  {Left: }i$_{\rm  s}$, g$_{\rm  s}$, and u$_{\rm  s}$\ light curves of J1023 overlaid with the best fit hot spot model, with 40 phase bins in black. \textit  {Right: } Temperature distribution of companion, showing the asymmetry which manifests as a large, polar spot. The dark band around the star is an artefact due to the plotting only. \relax }}{108}{figure.caption.198}\protected@file@percent }
\newlabel{fig:J1023-spot-model}{{3.7}{108}{\textit {Left: }i$_{\rm s}$, g$_{\rm s}$, and u$_{\rm s}$\ light curves of J1023 overlaid with the best fit hot spot model, with 40 phase bins in black. \textit {Right: } Temperature distribution of companion, showing the asymmetry which manifests as a large, polar spot. The dark band around the star is an artefact due to the plotting only. \relax }{figure.caption.198}{}}
\@writefile{toc}{\contentsline {subsubsection}{Heat Redistribution}{109}{section*.202}\protected@file@percent }
\newlabel{tab:J1023spot}{{3.5.2}{109}{Heat Redistribution}{section*.202}{}}
\@writefile{lof}{\contentsline {figure}{\numberline {3.8}{\ignorespaces Plot showing multinest evidence (red) and distance log-likelihood (blue) for fits of J1023 at different fixed pulsar masses. Note that the $y$-axis for the multinest evidence has been flipped such that the best-fitting model is represented by the peak in the red line, at $M_{\rm  psr} = 1.6M_{\odot }$. The discrepancy between this pulsar mass and the pulsar mass at which the best distance estimate occurs, $M_{\rm  psr} = 2.2 M_{\odot }$, can be clearly seen.\relax }}{110}{figure.caption.201}\protected@file@percent }
\newlabel{fig:my_label}{{3.8}{110}{Plot showing multinest evidence (red) and distance log-likelihood (blue) for fits of J1023 at different fixed pulsar masses. Note that the $y$-axis for the multinest evidence has been flipped such that the best-fitting model is represented by the peak in the red line, at $M_{\rm psr} = 1.6M_{\odot }$. The discrepancy between this pulsar mass and the pulsar mass at which the best distance estimate occurs, $M_{\rm psr} = 2.2 M_{\odot }$, can be clearly seen.\relax }{figure.caption.201}{}}
\@writefile{toc}{\contentsline {section}{\numberline {3.6}Discussion}{110}{section.203}\protected@file@percent }
\newlabel{sec:discussion}{{3.6}{110}{Discussion}{section.203}{}}
\@writefile{toc}{\contentsline {subsection}{\numberline {3.6.1}Filling factor}{110}{subsection.204}\protected@file@percent }
\newlabel{sec:discussionfilling}{{3.6.1}{110}{Filling factor}{subsection.204}{}}
\citation{Archibald2013}
\@writefile{lof}{\contentsline {figure}{\numberline {3.9}{\ignorespaces Relationship between filling factor, $f$, and the volume-averaged filling factor. At lower values of $f$ ($f < 0.6$) the relationship is linear. Considering filling factors for $f>0.8$, it can be seen how an apparently underfull Roche lobe can have a volume-averaged filling factor much closer to unity due to the tidally distorted shape of the companion.\relax }}{111}{figure.caption.205}\protected@file@percent }
\newlabel{fig:vaf}{{3.9}{111}{Relationship between filling factor, $f$, and the volume-averaged filling factor. At lower values of $f$ ($f < 0.6$) the relationship is linear. Considering filling factors for $f>0.8$, it can be seen how an apparently underfull Roche lobe can have a volume-averaged filling factor much closer to unity due to the tidally distorted shape of the companion.\relax }{figure.caption.205}{}}
\@writefile{toc}{\contentsline {subsection}{\numberline {3.6.2}Asymmetries}{112}{subsection.206}\protected@file@percent }
\newlabel{sec:asymm_disc}{{3.6.2}{112}{Asymmetries}{subsection.206}{}}
\citation{deMartino2014,deMartino2015}
\@writefile{toc}{\contentsline {subsection}{\numberline {3.6.3}PSR J1227-4853}{113}{subsection.208}\protected@file@percent }
\newlabel{sec:J1227disc}{{3.6.3}{113}{PSR J1227-4853}{subsection.208}{}}
\citation{Breton2012}
\@writefile{lof}{\contentsline {figure}{\numberline {3.10}{\ignorespaces Companion star temperature distribution for the best-fitting heat redistribution model. The asymmetry of this distribution can be seen near the L1 point, and the lack of the polar spot seen in the hotspot model is no longer present. The model light curve and residuals are indistinguishable from the hot spot case.\relax }}{114}{figure.caption.207}\protected@file@percent }
\newlabel{fig:J1023_HR_model}{{3.10}{114}{Companion star temperature distribution for the best-fitting heat redistribution model. The asymmetry of this distribution can be seen near the L1 point, and the lack of the polar spot seen in the hotspot model is no longer present. The model light curve and residuals are indistinguishable from the hot spot case.\relax }{figure.caption.207}{}}
\citation{Kandel2020}
\citation{Watson2007}
\@writefile{toc}{\contentsline {subsection}{\numberline {3.6.4}PSR J1023+0038}{115}{subsection.210}\protected@file@percent }
\newlabel{sec:J1023disc}{{3.6.4}{115}{PSR J1023+0038}{subsection.210}{}}
\@writefile{lof}{\contentsline {figure}{\numberline {3.11}{\ignorespaces Residuals per band for the best-fitting hot spot model of J1023; note that the $y$-axis is in units of flux. The u' residuals show a clear systematic pattern that mirrors the sinusoidal shape of the asymmetry in figure \ref  {fig:symmetriesJ1023}. Note also that the reduced $\chi ^2$ value for the u' is significantly larger than that for the other two channels; 1.88 compared to 1.05 for g' and 1.31 for i'. \relax }}{117}{figure.caption.211}\protected@file@percent }
\newlabel{fig:J1023M18res}{{3.11}{117}{Residuals per band for the best-fitting hot spot model of J1023; note that the $y$-axis is in units of flux. The u' residuals show a clear systematic pattern that mirrors the sinusoidal shape of the asymmetry in figure \ref {fig:symmetriesJ1023}. Note also that the reduced $\chi ^2$ value for the u' is significantly larger than that for the other two channels; 1.88 compared to 1.05 for g' and 1.31 for i'. \relax }{figure.caption.211}{}}
\@writefile{toc}{\contentsline {section}{\numberline {3.7}Conclusions}{117}{section.212}\protected@file@percent }
\newlabel{sec:conclusion}{{3.7}{117}{Conclusions}{section.212}{}}
\citation{deMartino2014}
\@setckpt{Chapters/j1227j1023}{
\setcounter{page}{119}
\setcounter{equation}{5}
\setcounter{enumi}{4}
\setcounter{enumii}{0}
\setcounter{enumiii}{0}
\setcounter{enumiv}{0}
\setcounter{footnote}{0}
\setcounter{mpfootnote}{0}
\setcounter{part}{0}
\setcounter{chapter}{3}
\setcounter{section}{7}
\setcounter{subsection}{0}
\setcounter{subsubsection}{0}
\setcounter{paragraph}{0}
\setcounter{subparagraph}{0}
\setcounter{figure}{11}
\setcounter{table}{4}
\setcounter{LT@tables}{1}
\setcounter{LT@chunks}{2}
\setcounter{caption@flags}{0}
\setcounter{ContinuedFloat}{0}
\setcounter{parentequation}{0}
\setcounter{subfigure}{0}
\setcounter{subtable}{0}
\setcounter{lstnumber}{1}
\setcounter{NAT@ctr}{0}
\setcounter{Item}{4}
\setcounter{Hfootnote}{2}
\setcounter{bookmark@seq@number}{103}
\setcounter{lstlisting}{0}
\setcounter{section@level}{1}
}
