\relax 
\providecommand\hyper@newdestlabel[2]{}
\@setckpt{Chapters/j1306}{
\setcounter{page}{119}
\setcounter{equation}{5}
\setcounter{enumi}{4}
\setcounter{enumii}{0}
\setcounter{enumiii}{0}
\setcounter{enumiv}{0}
\setcounter{footnote}{0}
\setcounter{mpfootnote}{0}
\setcounter{part}{0}
\setcounter{chapter}{3}
\setcounter{section}{7}
\setcounter{subsection}{0}
\setcounter{subsubsection}{0}
\setcounter{paragraph}{0}
\setcounter{subparagraph}{0}
\setcounter{figure}{11}
\setcounter{table}{4}
\setcounter{LT@tables}{3}
\setcounter{LT@chunks}{1}
\setcounter{caption@flags}{0}
\setcounter{ContinuedFloat}{0}
\setcounter{parentequation}{0}
\setcounter{subfigure}{0}
\setcounter{subtable}{0}
\setcounter{lstnumber}{1}
\setcounter{NAT@ctr}{0}
\setcounter{Item}{4}
\setcounter{Hfootnote}{2}
\setcounter{bookmark@seq@number}{105}
\setcounter{lstlisting}{0}
\setcounter{section@level}{1}
}
