\relax 
\providecommand\hyper@newdestlabel[2]{}
\citation{Fruchter1988}
\citation{Linares2020}
\@writefile{toc}{\contentsline {chapter}{\numberline {1}Introduction}{18}{chapter.15}\protected@file@percent }
\@writefile{lof}{\addvspace {10\p@ }}
\@writefile{lot}{\addvspace {10\p@ }}
\@writefile{toc}{\contentsline {section}{\numberline {1.1}Overview of this work}{18}{section.16}\protected@file@percent }
\citation{Hewish1968}
\citation{Gold1968}
\citation{PACINI1967}
\citation{Shklovsky1967}
\@writefile{toc}{\contentsline {section}{\numberline {1.2}Introduction to pulsars}{19}{section.17}\protected@file@percent }
\newlabel{sec: intro}{{1.2}{19}{Introduction to pulsars}{section.17}{}}
\citation{Manchester2014}
\citation{Young1999}
\citation{Young1999}
\citation{Lattimer2004}
\citation{Lattimer2007}
\citation{Hinderer2010}
\citation{Stairs2004}
\citation{Lattimer2000}
\citation{Stairs2004}
\citation{Lattimer2000,VanKerkwijk2011}
\citation{Glendenning1992}
\citation{Lattimer2000}
\citation{Lorimer2004}
\@writefile{toc}{\contentsline {subsection}{\numberline {1.2.1}Discovery, population, and properties}{20}{subsection.18}\protected@file@percent }
\newlabel{sec:discover}{{1.2.1}{20}{Discovery, population, and properties}{subsection.18}{}}
\citation{Truemper1978,Wheaton1979}
\citation{Lorimer2004}
\citation{Lorimer2004}
\citation{Hessels2006}
\citation{Tan2018}
\citation{Lorimer2004}
\@writefile{lof}{\contentsline {figure}{\numberline {1.1}{\ignorespaces Pulse profile of PSR J2144--3933, a pulsar with an unusually long 8.5 second period.}}{21}{figure.caption.19}\protected@file@percent }
\providecommand*\caption@xref[2]{\@setref\relax\@undefined{#1}}
\newlabel{fig:J2144}{{1.1}{21}{Pulse profile of PSR J2144--3933, a pulsar with an unusually long 8.5 second period}{figure.caption.19}{}}
\@writefile{lof}{\contentsline {figure}{\numberline {1.2}{\ignorespaces Illustration of a pulsar and its magnetosphere.}}{22}{figure.caption.20}\protected@file@percent }
\newlabel{fig:lighthouse}{{1.2}{22}{Illustration of a pulsar and its magnetosphere}{figure.caption.20}{}}
\newlabel{eq:energyloss}{{1.1}{22}{Discovery, population, and properties}{equation.21}{}}
\citation{PTA2010,Verbiest2008}
\citation{Tauris2015}
\citation{Manchester2014}
\citation{Tauris2015}
\citation{Manchester2014}
\citation{Bhattacharya1991}
\citation{Chen1993a}
\@writefile{lof}{\contentsline {figure}{\numberline {1.3}{\ignorespaces A $P-\mathaccentV {dot}05F{P}$ diagram, showing the distribution of known pulsars in 2014.}}{23}{figure.caption.24}\protected@file@percent }
\newlabel{fig:PPdot}{{1.3}{23}{A $P-\dot {P}$ diagram, showing the distribution of known pulsars in 2014}{figure.caption.24}{}}
\newlabel{eq:inertia}{{1.2}{23}{Discovery, population, and properties}{equation.22}{}}
\citation{Jackson1962,Lorimer2004,Sturrock1971}
\@writefile{toc}{\contentsline {subsection}{\numberline {1.2.2}Theoretical background}{24}{subsection.25}\protected@file@percent }
\newlabel{sec:theory}{{1.2.2}{24}{Theoretical background}{subsection.25}{}}
\@writefile{toc}{\contentsline {subsubsection}{Energy loss, rotation and magnetism}{24}{section*.26}\protected@file@percent }
\newlabel{sec:rotation}{{1.2.2}{24}{Energy loss, rotation and magnetism}{section*.26}{}}
\newlabel{eq:dipole}{{1.3}{24}{Energy loss, rotation and magnetism}{equation.27}{}}
\newlabel{eq:spinevo}{{1.4}{24}{Energy loss, rotation and magnetism}{equation.28}{}}
\citation{Kaspi2002}
\citation{Julian1969}
\citation{Mestel1972}
\citation{Mestel1992}
\citation{Julian1969}
\citation{Ontopoulos1999,Chen2014,Kalapotharakos2009}
\citation{Tauris2015}
\newlabel{eq:braking1}{{1.5}{25}{Energy loss, rotation and magnetism}{equation.29}{}}
\newlabel{eq:braking2}{{1.6}{25}{Energy loss, rotation and magnetism}{equation.30}{}}
\citation{Radhakrishnan1969}
\citation{Komesaroff1970}
\citation{Cordes1978}
\citation{Kramer1999}
\citation{Komesaroff1970,Sturrock1971,Sutherland1975}
\citation{Lesch1998}
\citation{Melrose1992}
\citation{Asseo1993}
\citation{Rowe1995}
\citation{Machabeli1979}
\citation{Harding1986}
\citation{Harding2002}
\citation{Cheng1986}
\citation{Romani1996}
\@writefile{toc}{\contentsline {subsubsection}{Emission}{26}{section*.34}\protected@file@percent }
\newlabel{sec:emission}{{1.2.2}{26}{Emission}{section*.34}{}}
\citation{Taylor1993}
\@writefile{toc}{\contentsline {subsubsection}{Propagation and observational quantities}{27}{section*.35}\protected@file@percent }
\newlabel{sec:propagation}{{1.2.2}{27}{Propagation and observational quantities}{section*.35}{}}
\@writefile{toc}{\contentsline {paragraph}{Frequency dispersion}{27}{section*.36}\protected@file@percent }
\citation{Lorimer2004}
\citation{PACINI1967}
\citation{Spitkovsky2002}
\citation{Kirk2009}
\citation{Kirk2009}
\@writefile{toc}{\contentsline {subsection}{\numberline {1.2.3}Timing}{28}{subsection.41}\protected@file@percent }
\newlabel{sec:obstiming}{{1.2.3}{28}{Timing}{subsection.41}{}}
\newlabel{eq:timing}{{1.14}{28}{Timing}{equation.42}{}}
\@writefile{toc}{\contentsline {subsection}{\numberline {1.2.4}Pulsar wind}{28}{subsection.43}\protected@file@percent }
\newlabel{sec:pwind}{{1.2.4}{28}{Pulsar wind}{subsection.43}{}}
\citation{Hester2002}
\citation{Fruchter1988}
\citation{Helfand2001}
\citation{Seward2006}
\citation{Seward2006}
\citation{Cerutti2014}
\citation{Cerutti2014}
\citation{Manchester2014}
\citation{Hulse1975}
\citation{Tauris2015}
\citation{Hulse1975,Weisberg2010}
\citation{Fruchter1988}
\citation{Breton2008}
\@writefile{toc}{\contentsline {section}{\numberline {1.3}Binary pulsars}{29}{section.45}\protected@file@percent }
\newlabel{sec:binary}{{1.3}{29}{Binary pulsars}{section.45}{}}
\@writefile{toc}{\contentsline {subsection}{\numberline {1.3.1}Introduction}{29}{subsection.46}\protected@file@percent }
\citation{LorimerLRR}
\newlabel{fig:crabpwn}{{1.4a}{30}{Image of the Crab nebula produced using CHANDRA Observatory X-ray data}{figure.caption.44}{}}
\newlabel{sub@fig:crabpwn}{{a}{30}{Image of the Crab nebula produced using CHANDRA Observatory X-ray data}{figure.caption.44}{}}
\newlabel{fig:pwnshock}{{1.4b}{30}{Illustration of a PWN shock}{figure.caption.44}{}}
\newlabel{sub@fig:pwnshock}{{b}{30}{Illustration of a PWN shock}{figure.caption.44}{}}
\@writefile{lof}{\contentsline {figure}{\numberline {1.4}{\ignorespaces X-ray image of the Crab pulsar wind nebula and illustration of a pulsar wind nebula.}}{30}{figure.caption.44}\protected@file@percent }
\newlabel{fig:pwns}{{1.4}{30}{X-ray image of the Crab pulsar wind nebula and illustration of a pulsar wind nebula}{figure.caption.44}{}}
\@writefile{toc}{\contentsline {subsection}{\numberline {1.3.2}Timing in binaries}{30}{subsection.47}\protected@file@percent }
\@writefile{toc}{\contentsline {subsubsection}{Keplerian delays}{30}{section*.48}\protected@file@percent }
\newlabel{sec:kep}{{1.3.2}{30}{Keplerian delays}{section*.48}{}}
\@writefile{toc}{\contentsline {subsubsection}{The mass function}{30}{section*.49}\protected@file@percent }
\citation{Chakrabarty1998b}
\citation{Chakrabarty1998b}
\newlabel{eq:K3L}{{1.15}{31}{The mass function}{equation.50}{}}
\newlabel{eq:massfunc1}{{1.18}{31}{The mass function}{equation.53}{}}
\newlabel{eq:massfunc2}{{1.19}{31}{The mass function}{equation.54}{}}
\citation{Bhattacharya1991}
\citation{Bhattacharya1991}
\citation{Tauris2015,Tauris2006}
\citation{Alpar1982,Bhattacharya1991}
\citation{Bhattacharya1991}
\citation{Verbunt1995}
\citation{Bhattacharya2002a}
\@writefile{lof}{\contentsline {figure}{\numberline {1.5}{\ignorespaces Timing delays over the two-hour orbit of binary pulsar SAX J1808.4-3658.}}{32}{figure.caption.55}\protected@file@percent }
\newlabel{fig:timedelays}{{1.5}{32}{Timing delays over the two-hour orbit of binary pulsar SAX J1808.4-3658}{figure.caption.55}{}}
\@writefile{toc}{\contentsline {subsection}{\numberline {1.3.3}Formation}{32}{subsection.56}\protected@file@percent }
\@writefile{toc}{\contentsline {subsubsection}{Recycling}{32}{section*.57}\protected@file@percent }
\newlabel{sec:recycling}{{1.3.3}{32}{Recycling}{section*.57}{}}
\@writefile{lof}{\contentsline {figure}{\numberline {1.6}{\ignorespaces Illustration of equipotential surfaces and Lagrange points for two masses $M_1>M_2$.}}{32}{figure.caption.58}\protected@file@percent }
\newlabel{fig:roche}{{1.6}{32}{Illustration of equipotential surfaces and Lagrange points for two masses $M_1>M_2$}{figure.caption.58}{}}
\citation{Tauris2001}
\citation{Verbunt1981}
\citation{Witte1999}
\citation{Soberman1997}
\citation{Rappaport1983}
\citation{Witte1999}
\citation{Bhattacharya1991}
\citation{Tauris2006}
\@writefile{toc}{\contentsline {subsubsection}{Angular momentum transfer}{33}{section*.59}\protected@file@percent }
\citation{Tauris2006}
\citation{Tauris2006}
\citation{Tauris2006}
\citation{Tauris2006}
\@writefile{toc}{\contentsline {subsubsection}{X-Ray binaries and their evolution}{34}{section*.60}\protected@file@percent }
\newlabel{sec:xrbs}{{1.3.3}{34}{X-Ray binaries and their evolution}{section*.60}{}}
\newlabel{fig:hmxb}{{1.7a}{34}{Illustration of a HMXB, showing accretion via the strong stellar wind of the giant companion}{figure.caption.61}{}}
\newlabel{sub@fig:hmxb}{{a}{34}{Illustration of a HMXB, showing accretion via the strong stellar wind of the giant companion}{figure.caption.61}{}}
\newlabel{fig:lmxb}{{1.7b}{34}{Illustration of a LMXB, showing accretion via Roche lobe overflow through the $L_1$ Lagrange point}{figure.caption.61}{}}
\newlabel{sub@fig:lmxb}{{b}{34}{Illustration of a LMXB, showing accretion via Roche lobe overflow through the $L_1$ Lagrange point}{figure.caption.61}{}}
\@writefile{lof}{\contentsline {figure}{\numberline {1.7}{\ignorespaces Illustrations of low- and high-mass X-ray binaries.}}{34}{figure.caption.61}\protected@file@percent }
\newlabel{fig:xrbs}{{1.7}{34}{Illustrations of low- and high-mass X-ray binaries}{figure.caption.61}{}}
\citation{Tauris1999}
\citation{Ma2009}
\citation{Ma2009}
\citation{Ma2009}
\citation{King1988}
\@writefile{lof}{\contentsline {figure}{\numberline {1.8}{\ignorespaces Three simulated orbital evolution trajectories with similar initial periods, illustrating the bifurcation process.}}{35}{figure.caption.62}\protected@file@percent }
\newlabel{fig:bifurcation}{{1.8}{35}{Three simulated orbital evolution trajectories with similar initial periods, illustrating the bifurcation process}{figure.caption.62}{}}
\citation{Pylyser1989}
\citation{King1988,Rappaport1983}
\citation{Tauris2012}
\citation{vandenHeuvel1988}
\citation{Kluzniak1988}
\citation{Chen2013}
\citation{Podsiadlowski1991}
\citation{Podsiadlowski1991}
\citation{Fruchter1988}
\citation{Lyne1990}
\citation{Ferraro2001}
\citation{Thorstensen2005}
\@writefile{toc}{\contentsline {section}{\numberline {1.4}Spider pulsars}{37}{section.63}\protected@file@percent }
\newlabel{spiders}{{1.4}{37}{Spider pulsars}{section.63}{}}
\@writefile{toc}{\contentsline {subsection}{\numberline {1.4.1}Classification and formation}{37}{subsection.64}\protected@file@percent }
\newlabel{sec:spiderclass}{{1.4.1}{37}{Classification and formation}{subsection.64}{}}
\@writefile{lof}{\contentsline {figure}{\numberline {1.9}{\ignorespaces Illustration of the effect of the pulsar wind on the irradiated companion.}}{37}{figure.caption.65}\protected@file@percent }
\newlabel{fig:BW}{{1.9}{37}{Illustration of the effect of the pulsar wind on the irradiated companion}{figure.caption.65}{}}
\citation{Chen2013}
\citation{Chen2013}
\citation{Chen2013}
\citation{Chen2013}
\citation{Benvenuto2014}
\@writefile{lof}{\contentsline {figure}{\numberline {1.10}{\ignorespaces Simulated evolution tracks of binary systems with varying evaporation efficiency factors, $f$, showing the formation of two distinct populations.}}{38}{figure.caption.66}\protected@file@percent }
\newlabel{fig:chenfigure}{{1.10}{38}{Simulated evolution tracks of binary systems with varying evaporation efficiency factors, $f$, showing the formation of two distinct populations}{figure.caption.66}{}}
\citation{Roy2015}
\citation{Deller2015}
\citation{Santisteban2016}
\citation{Santisteban2016}
\citation{vandenHeuvel1988,Phinney1988,Kluzniak1988}
\citation{Podsiadlowski1991}
\citation{Breton2012}
\citation{Chen2013}
\@writefile{toc}{\contentsline {subsection}{\numberline {1.4.2}Physical properties}{39}{subsection.67}\protected@file@percent }
\newlabel{sec:spiderphysics}{{1.4.2}{39}{Physical properties}{subsection.67}{}}
\@writefile{toc}{\contentsline {subsubsection}{Irradiation and ablation}{39}{section*.68}\protected@file@percent }
\newlabel{sec:spiderirrad}{{1.4.2}{39}{Irradiation and ablation}{section*.68}{}}
\newlabel{fig:bwheat}{{1.11a}{39}{Temperature distribution of the distorted, irradiated companion}{figure.caption.69}{}}
\newlabel{sub@fig:bwheat}{{a}{39}{Temperature distribution of the distorted, irradiated companion}{figure.caption.69}{}}
\newlabel{fig:bwcurve}{{1.11b}{39}{Resulting optical light curve, with the fitted model shown as a solid line, showing both ellipsoidal variation and the effect of irradiation, such that the maxima occur when the companion star is `side-on' to the observer}{figure.caption.69}{}}
\newlabel{sub@fig:bwcurve}{{b}{39}{Resulting optical light curve, with the fitted model shown as a solid line, showing both ellipsoidal variation and the effect of irradiation, such that the maxima occur when the companion star is `side-on' to the observer}{figure.caption.69}{}}
\@writefile{lof}{\contentsline {figure}{\numberline {1.11}{\ignorespaces Optical light curve and illustration of the irradiated companion star in SDSS J143317.78+101123.3.}}{39}{figure.caption.69}\protected@file@percent }
\newlabel{fig:bwheatcurve}{{1.11}{39}{Optical light curve and illustration of the irradiated companion star in SDSS J143317.78+101123.3}{figure.caption.69}{}}
\citation{Milne1921}
\citation{Lara2011}
\citation{Fruchter1990}
\citation{Archibald2009}
\citation{Polzin2020}
\@writefile{toc}{\contentsline {subsubsection}{Eclipses}{40}{section*.70}\protected@file@percent }
\newlabel{sec:spidereclipse}{{1.4.2}{40}{Eclipses}{section*.70}{}}
\citation{Thompson1994}
\citation{Polzin2019,Polzin2020}
\citation{Bhattacharyya2013}
\citation{Stappers2001}
\citation{Polzin2020}
\citation{Polzin2020}
\@writefile{lof}{\contentsline {figure}{\numberline {1.12}{\ignorespaces The radio eclipse of PSR~J1816+4510.}}{41}{figure.caption.71}\protected@file@percent }
\newlabel{fig:radioeclipse}{{1.12}{41}{The radio eclipse of PSR~J1816+4510}{figure.caption.71}{}}
\@writefile{toc}{\contentsline {subsubsection}{Optical properties}{41}{section*.72}\protected@file@percent }
\newlabel{sec:optilcs}{{1.4.2}{41}{Optical properties}{section*.72}{}}
\citation{Breton2013}
\citation{Breton2013}
\citation{Baglio2016}
\citation{Kaplan2013}
\citation{Khechinashvili2000}
\citation{Applegate1994}
\citation{Applegate2002}
\citation{Arzoumanian1994}
\citation{Voisin2020}
\newlabel{eq:irradtemp}{{1.20}{42}{Optical properties}{equation.73}{}}
\citation{Archibald2009}
\citation{Bond2002}
\citation{Stapper2014J1023}
\citation{Roy2015,Deller2015}
\citation{Archibald2009}
\citation{Papitto2020_tmsp}
\citation{Pringle1972}
\citation{Illarionov1975}
\citation{Kluzniak1988}
\@writefile{toc}{\contentsline {subsubsection}{Magnetic fields and binary properties}{43}{section*.75}\protected@file@percent }
\newlabel{sec:spidermag}{{1.4.2}{43}{Magnetic fields and binary properties}{section*.75}{}}
\@writefile{toc}{\contentsline {section}{\numberline {1.5}Transitional millisecond pulsars}{43}{section.76}\protected@file@percent }
\newlabel{sec:tmsp_lit}{{1.5}{43}{Transitional millisecond pulsars}{section.76}{}}
\@writefile{toc}{\contentsline {subsection}{\numberline {1.5.1}Accretion and the transition}{43}{subsection.77}\protected@file@percent }
\citation{Bond2002}
\citation{Szkody2003}
\citation{Woudt2004}
\citation{Archibald2009}
\citation{Szkody2003}
\citation{Thorstensen2005J1023}
\citation{Woudt2004}
\citation{Stapper2014J1023}
\@writefile{toc}{\contentsline {subsection}{\numberline {1.5.2}Known tMSPs}{44}{subsection.78}\protected@file@percent }
\citation{Sazonov2004,Masetti2006,Pretorius2009}
\citation{demartino2010J1227}
\citation{Bassa2014tmsp}
\citation{Roy2015}
\citation{Papitto2013tmsp}
\citation{Britt2017}
\citation{Jaodand2016}
\citation{Patruno2014,Linares2014}
\citation{Deller2015}
\citation{Patruno2014}
\citation{Linares2014}
\@writefile{toc}{\contentsline {subsection}{\numberline {1.5.3}tMSP characteristics}{45}{subsection.79}\protected@file@percent }
\citation{Kennedy2018}
\citation{Archibald2009,Bassa2014}
\citation{Archibald2009,Patruno2014}
\@writefile{toc}{\contentsline {section}{\numberline {1.6}Statistical, numerical, and machine learning methods}{46}{section.80}\protected@file@percent }
\newlabel{sec:statmeth}{{1.6}{46}{Statistical, numerical, and machine learning methods}{section.80}{}}
\@writefile{toc}{\contentsline {subsection}{\numberline {1.6.1}Bayesian inference and sampling methods}{46}{subsection.81}\protected@file@percent }
\citation{Feroz2009}
\citation{Buchner2014}
\citation{Breton2012}
\citation{Lucy1967}
\citation{Breton2012}
\newlabel{eq:Zintegral}{{1.25}{48}{Bayesian inference and sampling methods}{equation.85}{}}
\@writefile{toc}{\contentsline {subsection}{\numberline {1.6.2}Icarus}{48}{subsection.88}\protected@file@percent }
\newlabel{sec:liticarus}{{1.6.2}{48}{Icarus}{subsection.88}{}}
\newlabel{table:icarus_params}{{\caption@xref {table:icarus_params}{ on input line 784}}{49}{Icarus}{table.caption.90}{}}
\@writefile{lot}{\contentsline {table}{\numberline {1.1}{\ignorespaces Fit parameters for the {\tt  Icarus}\ model.}}{49}{table.caption.90}\protected@file@percent }
\newlabel{table:icarus_params}{{1.1}{49}{Fit parameters for the \icarustt \ model}{table.caption.90}{}}
\citation{KamHo1998,Breiman2001}
\citation{Breiman2001}
\@writefile{toc}{\contentsline {subsection}{\numberline {1.6.3}Machine learning}{50}{subsection.91}\protected@file@percent }
\newlabel{sec:introml}{{1.6.3}{50}{Machine learning}{subsection.91}{}}
\@writefile{toc}{\contentsline {subsubsection}{The Random Forest classifier}{50}{section*.92}\protected@file@percent }
\newlabel{table:hyper}{{\caption@xref {table:hyper}{ on input line 847}}{51}{The Random Forest classifier}{table.caption.93}{}}
\@writefile{lot}{\contentsline {table}{\numberline {1.2}{\ignorespaces Hyperparameters of the Random Forest classifier used in this research.}}{51}{table.caption.93}\protected@file@percent }
\newlabel{table:hyper}{{1.2}{51}{Hyperparameters of the Random Forest classifier used in this research}{table.caption.93}{}}
\@writefile{toc}{\contentsline {subsubsection}{Performance metrics}{51}{section*.94}\protected@file@percent }
\newlabel{sec:ml_metrics}{{1.6.3}{51}{Performance metrics}{section*.94}{}}
\newlabel{table:cm_demo}{{\caption@xref {table:cm_demo}{ on input line 866}}{51}{Performance metrics}{table.caption.95}{}}
\@writefile{lot}{\contentsline {table}{\numberline {1.3}{\ignorespaces Simple model confusion matrix indicating the definitions of various metrics.}}{51}{table.caption.95}\protected@file@percent }
\newlabel{table:cm_demo}{{1.3}{51}{Simple model confusion matrix indicating the definitions of various metrics}{table.caption.95}{}}
\@setckpt{Chapters/litreview}{
\setcounter{page}{54}
\setcounter{equation}{32}
\setcounter{enumi}{4}
\setcounter{enumii}{0}
\setcounter{enumiii}{0}
\setcounter{enumiv}{0}
\setcounter{footnote}{2}
\setcounter{mpfootnote}{0}
\setcounter{part}{0}
\setcounter{chapter}{1}
\setcounter{section}{6}
\setcounter{subsection}{3}
\setcounter{subsubsection}{0}
\setcounter{paragraph}{0}
\setcounter{subparagraph}{0}
\setcounter{figure}{12}
\setcounter{table}{3}
\setcounter{LT@tables}{1}
\setcounter{LT@chunks}{2}
\setcounter{caption@flags}{2}
\setcounter{ContinuedFloat}{0}
\setcounter{r@tfl@t}{0}
\setcounter{parentequation}{0}
\setcounter{subfigure}{0}
\setcounter{subtable}{0}
\setcounter{lstnumber}{1}
\setcounter{NAT@ctr}{0}
\setcounter{Item}{4}
\setcounter{Hfootnote}{2}
\setcounter{bookmark@seq@number}{44}
\setcounter{lstlisting}{0}
\setcounter{section@level}{3}
}
