\relax 
\providecommand\hyper@newdestlabel[2]{}
\@writefile{toc}{\contentsline {chapter}{\numberline {2}Instrumentation, observations, and simulations}{54}{chapter.101}\protected@file@percent }
\@writefile{lof}{\addvspace {10\p@ }}
\@writefile{lot}{\addvspace {10\p@ }}
\newlabel{ch:observations}{{2}{54}{Instrumentation, observations, and simulations}{chapter.101}{}}
\@writefile{toc}{\contentsline {section}{\numberline {2.1}Introduction}{54}{section.102}\protected@file@percent }
\citation{Dhillon2007}
\citation{Fukugita1996}
\@writefile{toc}{\contentsline {section}{\numberline {2.2}Instrumentation and data analysis}{55}{section.103}\protected@file@percent }
\newlabel{sec:future}{{2.2}{55}{Instrumentation and data analysis}{section.103}{}}
\@writefile{toc}{\contentsline {subsection}{\numberline {2.2.1}Instrumentation}{55}{subsection.104}\protected@file@percent }
\newlabel{sec:instruments}{{2.2.1}{55}{Instrumentation}{subsection.104}{}}
\@writefile{toc}{\contentsline {subsubsection}{ULTRACAM}{55}{section*.105}\protected@file@percent }
\newlabel{sec:ultracam}{{2.2.1}{55}{ULTRACAM}{section*.105}{}}
\citation{Fukugita1996}
\citation{Fukugita1996}
\@writefile{lof}{\contentsline {figure}{\numberline {2.1}{\ignorespaces Transmission curves for the SDSS photometric system u'g'r'i'z' filters.}}{56}{figure.caption.106}\protected@file@percent }
\newlabel{fig:sdss}{{2.1}{56}{Transmission curves for the SDSS photometric system u'g'r'i'z' filters}{figure.caption.106}{}}
\citation{hipercam}
\@writefile{toc}{\contentsline {subsubsection}{HiPERCAM}{57}{section*.107}\protected@file@percent }
\@writefile{toc}{\contentsline {subsubsection}{Telescopes}{57}{section*.108}\protected@file@percent }
\newlabel{sec:teles}{{2.2.1}{57}{Telescopes}{section*.108}{}}
\citation{GOTO,Dyer2020}
\@writefile{toc}{\contentsline {subsection}{\numberline {2.2.2}Data reduction}{58}{subsection.109}\protected@file@percent }
\@writefile{toc}{\contentsline {subsubsection}{The ULTRACAM pipeline}{58}{section*.110}\protected@file@percent }
\newlabel{sec:ultrapipe}{{2.2.2}{58}{The ULTRACAM pipeline}{section*.110}{}}
\@writefile{lof}{\contentsline {figure}{\numberline {2.2}{\ignorespaces ULTRACAM field of PSR J1227-4853.}}{59}{figure.caption.111}\protected@file@percent }
\newlabel{fig:J1227_full}{{2.2}{59}{ULTRACAM field of PSR J1227-4853}{figure.caption.111}{}}
\newlabel{eq:calib}{{2.1}{60}{The ULTRACAM pipeline}{equation.112}{}}
\@writefile{lof}{\contentsline {figure}{\numberline {2.3}{\ignorespaces Section of figure \ref  {fig:J1227_full}, cropped around the target source.}}{61}{figure.caption.113}\protected@file@percent }
\newlabel{fig:J1227_crop}{{2.3}{61}{Section of figure \ref {fig:J1227_full}, cropped around the target source}{figure.caption.113}{}}
\@writefile{toc}{\contentsline {subsection}{\numberline {2.2.3}Calibration of photometric light curves}{61}{subsection.115}\protected@file@percent }
\@writefile{toc}{\contentsline {subsubsection}{PyCam}{61}{section*.116}\protected@file@percent }
\newlabel{sec:pycam}{{2.2.3}{61}{PyCam}{section*.116}{}}
\citation{Lorimer2004}
\@writefile{lof}{\contentsline {figure}{\numberline {2.4}{\ignorespaces Graphical output of ULTRACAM reduction pipeline.}}{62}{figure.caption.114}\protected@file@percent }
\newlabel{fig:reduce_ps}{{2.4}{62}{Graphical output of ULTRACAM reduction pipeline}{figure.caption.114}{}}
\@writefile{toc}{\contentsline {paragraph}{Reduction, timing, and flux calibration}{62}{section*.117}\protected@file@percent }
\newlabel{eq:mag_eq}{{2.2}{62}{Reduction, timing, and flux calibration}{equation.118}{}}
\newlabel{eq:phase_fold}{{2.3}{63}{Reduction, timing, and flux calibration}{equation.119}{}}
\@writefile{toc}{\contentsline {paragraph}{Uncertainties}{63}{section*.120}\protected@file@percent }
\newlabel{eq:SN_1}{{2.4}{63}{Uncertainties}{equation.121}{}}
\newlabel{eq:SN_2}{{2.5}{64}{Uncertainties}{equation.122}{}}
\newlabel{eq:SN_3}{{2.6}{64}{Uncertainties}{equation.123}{}}
\@writefile{toc}{\contentsline {subsubsection}{Colour terms}{65}{section*.127}\protected@file@percent }
\newlabel{sec:colourterms}{{2.2.3}{65}{Colour terms}{section*.127}{}}
\@writefile{toc}{\contentsline {section}{\numberline {2.3}Observational work}{65}{section.128}\protected@file@percent }
\newlabel{sec:obs}{{2.3}{65}{Observational work}{section.128}{}}
\@writefile{toc}{\contentsline {subsection}{\numberline {2.3.1}Scheduler}{65}{subsection.129}\protected@file@percent }
\newlabel{eq:airmass}{{2.10}{66}{Scheduler}{equation.130}{}}
\citation{Archibald2009}
\@writefile{lof}{\contentsline {figure}{\numberline {2.5}{\ignorespaces An example schedule created with the Scheduler, for my 23\textsuperscript  {rd} birthday, 2018-02-21.}}{68}{figure.caption.131}\protected@file@percent }
\newlabel{fig:octschedule}{{2.5}{68}{An example schedule created with the Scheduler, for my 23\textsuperscript {rd} birthday, 2018-02-21}{figure.caption.131}{}}
\citation{J2241a}
\citation{J2017a}
\citation{J2017b}
\citation{J0427strader}
\@writefile{toc}{\contentsline {subsection}{\numberline {2.3.2}ULTRACAM on the NTT: October 2017}{69}{subsection.132}\protected@file@percent }
\newlabel{sec:ultraobs}{{2.3.2}{69}{ULTRACAM on the NTT: October 2017}{subsection.132}{}}
\@writefile{toc}{\contentsline {subsubsection}{Observing with ULTRACAM}{69}{section*.133}\protected@file@percent }
\@writefile{toc}{\contentsline {subsubsection}{P101 targets}{69}{section*.134}\protected@file@percent }
\newlabel{sec:P101}{{2.3.2}{69}{P101 targets}{section*.134}{}}
\@writefile{toc}{\contentsline {paragraph}{PSR J2241--5236}{69}{section*.135}\protected@file@percent }
\@writefile{toc}{\contentsline {paragraph}{3FGL J2017--16}{69}{section*.136}\protected@file@percent }
\@writefile{toc}{\contentsline {paragraph}{3FGL J0427.9--6704}{69}{section*.137}\protected@file@percent }
\citation{J0744Sal}
\citation{J0744-wusm}
\@writefile{lof}{\contentsline {figure}{\numberline {2.6}{\ignorespaces Phased i'- and g'-band light curves of 3FGL J0744-2523 and g'-i' colour index.}}{70}{figure.caption.138}\protected@file@percent }
\newlabel{fig:J0744}{{2.6}{70}{Phased i'- and g'-band light curves of 3FGL J0744-2523 and g'-i' colour index}{figure.caption.138}{}}
\@writefile{toc}{\contentsline {paragraph}{3FGL J0744.1--2523}{70}{section*.139}\protected@file@percent }
\citation{J2339Ray}
\citation{J2339Plet}
\@writefile{lof}{\contentsline {figure}{\numberline {2.7}{\ignorespaces Phased i'- and g'-band light curves of PSR J2339-0533.}}{71}{figure.caption.140}\protected@file@percent }
\newlabel{fig:J2339}{{2.7}{71}{Phased i'- and g'-band light curves of PSR J2339-0533}{figure.caption.140}{}}
\@writefile{toc}{\contentsline {paragraph}{PSR J2339--0533}{71}{section*.141}\protected@file@percent }
\citation{J1628-ray}
\citation{J1628-li}
\citation{J1628-li}
\citation{J1628-li}
\@writefile{toc}{\contentsline {subsection}{\numberline {2.3.3}Other Sources}{72}{subsection.142}\protected@file@percent }
\@writefile{lof}{\contentsline {figure}{\numberline {2.8}{\ignorespaces Flux and phase calibrated light curve of PSR J1628-3205, using data from the nights of 2016-07-06, 2016-08-23, and 2017-06-17.}}{72}{figure.caption.143}\protected@file@percent }
\newlabel{fig:J1628a}{{2.8}{72}{Flux and phase calibrated light curve of PSR J1628-3205, using data from the nights of 2016-07-06, 2016-08-23, and 2017-06-17}{figure.caption.143}{}}
\@writefile{toc}{\contentsline {subsubsection}{PSR J1628--3205}{72}{section*.144}\protected@file@percent }
\newlabel{sec:J1628}{{2.3.3}{72}{PSR J1628--3205}{section*.144}{}}
\citation{Kennedy2020}
\citation{J0427strader}
\citation{J0427strader}
\citation{Kennedy2020}
\@writefile{lof}{\contentsline {figure}{\numberline {2.9}{\ignorespaces Flux and phase calibrated light curve of PSR J1628-3205, with 10-factor binning and trimming.}}{73}{figure.caption.145}\protected@file@percent }
\newlabel{fig:J1628b}{{2.9}{73}{Flux and phase calibrated light curve of PSR J1628-3205, with 10-factor binning and trimming}{figure.caption.145}{}}
\citation{Kennedy2020}
\citation{Kennedy2020}
\citation{Keane2018}
\citation{Keane2018}
\citation{Linares2018}
\citation{Linares2018}
\@writefile{toc}{\contentsline {subsubsection}{3FGL J0427.9--6704}{74}{section*.146}\protected@file@percent }
\newlabel{sec:J0427}{{2.3.3}{74}{3FGL J0427.9--6704}{section*.146}{}}
\@writefile{lof}{\contentsline {figure}{\numberline {2.10}{\ignorespaces Phased and flux-calibrated SDSS u'-, g'-, and i'-band light curves of J0427.}}{74}{figure.caption.147}\protected@file@percent }
\newlabel{fig:J0427lc}{{2.10}{74}{Phased and flux-calibrated SDSS u'-, g'-, and i'-band light curves of J0427}{figure.caption.147}{}}
\@writefile{lof}{\contentsline {figure}{\numberline {2.11}{\ignorespaces Phased light curve of J1306, repeated for clarity.}}{75}{figure.caption.149}\protected@file@percent }
\newlabel{fig:colour_lc}{{2.11}{75}{Phased light curve of J1306, repeated for clarity}{figure.caption.149}{}}
\citation{Linares2018}
\@writefile{toc}{\contentsline {subsubsection}{PSR J1306--40}{76}{section*.148}\protected@file@percent }
\newlabel{sec:J1306}{{2.3.3}{76}{PSR J1306--40}{section*.148}{}}
\citation{J1227-mart,J1227-roy}
\@writefile{toc}{\contentsline {section}{\numberline {2.4}Simulations}{77}{section.150}\protected@file@percent }
\newlabel{sec:simulations}{{2.4}{77}{Simulations}{section.150}{}}
\@writefile{toc}{\contentsline {subsection}{\numberline {2.4.1}Signal-to-noise ratio}{77}{subsection.151}\protected@file@percent }
\newlabel{sec:snr}{{2.4.1}{77}{Signal-to-noise ratio}{subsection.151}{}}
\@writefile{toc}{\contentsline {subsection}{\numberline {2.4.2}Light curve simulations}{77}{subsection.152}\protected@file@percent }
\citation{J1227-mart}
\citation{Breton2012}
\citation{J1227-mart}
\@writefile{toc}{\contentsline {subsubsection}{The simulation}{78}{section*.153}\protected@file@percent }
\newlabel{sec:ultrasim}{{2.4.2}{78}{The simulation}{section*.153}{}}
\newlabel{eq:Aell}{{2.11}{78}{The simulation}{equation.154}{}}
\newlabel{eq:sim_func}{{2.13}{79}{The simulation}{equation.156}{}}
\@writefile{lof}{\contentsline {figure}{\numberline {2.12}{\ignorespaces Two channels (Super SDDS r' and g') of simulated data of J1227--4853.}}{79}{figure.caption.157}\protected@file@percent }
\newlabel{fig:1227sim}{{2.12}{79}{Two channels (Super SDDS r' and g') of simulated data of J1227--4853}{figure.caption.157}{}}
\citation{J1227-roy}
\citation{J1227-mart}
\citation{deMartino2014}
\@writefile{toc}{\contentsline {subsubsection}{Recovery of parameters}{80}{section*.162}\protected@file@percent }
\newlabel{sec:FirstGotoSim}{{2.4.2}{80}{Recovery of parameters}{section*.162}{}}
\@writefile{lof}{\contentsline {figure}{\numberline {2.13}{\ignorespaces Simulated light curve of Super SDSS r' data of PSR J0952--0607, with HiPERCAM on the GTC.}}{81}{figure.caption.161}\protected@file@percent }
\newlabel{fig:J0952-sim}{{2.13}{81}{Simulated light curve of Super SDSS r' data of PSR J0952--0607, with HiPERCAM on the GTC}{figure.caption.161}{}}
\@writefile{lof}{\contentsline {figure}{\numberline {2.14}{\ignorespaces Effect of light curve modulation amplitude on period recovery efficiency for light curves with 10 samples.}}{82}{figure.caption.163}\protected@file@percent }
\newlabel{fig:PR-10}{{2.14}{82}{Effect of light curve modulation amplitude on period recovery efficiency for light curves with 10 samples}{figure.caption.163}{}}
\@writefile{lof}{\contentsline {figure}{\numberline {2.15}{\ignorespaces Effect of light curve modulation amplitude on period recovery efficiency for light curves with 40 samples.}}{83}{figure.caption.164}\protected@file@percent }
\newlabel{fig:PR-40}{{2.15}{83}{Effect of light curve modulation amplitude on period recovery efficiency for light curves with 40 samples}{figure.caption.164}{}}
\citation{Kennedy2020}
\@writefile{toc}{\contentsline {section}{\numberline {2.5}Conclusion}{84}{section.165}\protected@file@percent }
\newlabel{sec:obsconclusions}{{2.5}{84}{Conclusion}{section.165}{}}
\@setckpt{Chapters/observations}{
\setcounter{page}{85}
\setcounter{equation}{16}
\setcounter{enumi}{4}
\setcounter{enumii}{0}
\setcounter{enumiii}{0}
\setcounter{enumiv}{0}
\setcounter{footnote}{0}
\setcounter{mpfootnote}{0}
\setcounter{part}{0}
\setcounter{chapter}{2}
\setcounter{section}{5}
\setcounter{subsection}{0}
\setcounter{subsubsection}{0}
\setcounter{paragraph}{0}
\setcounter{subparagraph}{0}
\setcounter{figure}{15}
\setcounter{table}{0}
\setcounter{LT@tables}{1}
\setcounter{LT@chunks}{2}
\setcounter{caption@flags}{0}
\setcounter{ContinuedFloat}{0}
\setcounter{r@tfl@t}{0}
\setcounter{parentequation}{0}
\setcounter{subfigure}{0}
\setcounter{subtable}{0}
\setcounter{lstnumber}{1}
\setcounter{NAT@ctr}{0}
\setcounter{Item}{4}
\setcounter{Hfootnote}{2}
\setcounter{bookmark@seq@number}{71}
\setcounter{lstlisting}{0}
\setcounter{section@level}{1}
}
