\relax 
\providecommand\hyper@newdestlabel[2]{}
\citation{Alpar1982}
\citation{Archibald2009}
\citation{Breton2013,Roberts2011}
\citation{Linares2020}
\citation{Britt2017}
\citation{Jaodand2016,Papitto2019,Jaodand2021}
\citation{Patruno2014,Linares2014}
\citation{Kennedy2018,Shahbaz2018b}
\citation{Archibald2009,Bassa2014}
\citation{Archibald2009,Patruno2014}
\@writefile{toc}{\contentsline {chapter}{\numberline {3}Optical photometry of two millisecond pulsars}{85}{chapter.166}\protected@file@percent }
\@writefile{lof}{\addvspace {10\p@ }}
\@writefile{lot}{\addvspace {10\p@ }}
\newlabel{ch:tmsps}{{3}{85}{Optical photometry of two millisecond pulsars}{chapter.166}{}}
\@writefile{toc}{\contentsline {section}{\numberline {3.1}Introduction}{85}{section.167}\protected@file@percent }
\newlabel{sec:tmspintro}{{3.1}{85}{Introduction}{section.167}{}}
\citation{Chen2013}
\citation{Konar1997,Cumming2001}
\citation{Archibald2009}
\citation{DeFalco2017,CotiZelati2019}
\citation{Strader2016,Kennedy2020}
\citation{Bond2002}
\citation{Woudt2004}
\citation{Thorstensen2005}
\citation{Archibald2009,Wang2009}
\citation{Stappers2014}
\citation{Patruno2014}
\citation{Kennedy2018,Papitto2018}
\citation{Bonnet2012,deMartino2012}
\citation{Bogdanov2014,Bassa2014}
\citation{Roy2015}
\citation{Johnson2015}
\citation{Dhillon2007}
\citation{Dhillon2018}
\@writefile{toc}{\contentsline {section}{\numberline {3.2}Optical observations}{87}{section.168}\protected@file@percent }
\newlabel{sec:opticalobs}{{3.2}{87}{Optical observations}{section.168}{}}
\@writefile{toc}{\contentsline {subsection}{\numberline {3.2.1}ULTRACAM on the NTT}{87}{subsection.169}\protected@file@percent }
\newlabel{sec:UCAMNTT}{{3.2.1}{87}{ULTRACAM on the NTT}{subsection.169}{}}
\citation{HoneyCutt1992}
\@writefile{lof}{\contentsline {figure}{\numberline {3.1}{\ignorespaces Phased light curve of J1227, repeated over two cycles for clarity, with each colour corresponding to a different filter as in the legend.}}{88}{figure.caption.170}\protected@file@percent }
\newlabel{fig:J1227_lc}{{3.1}{88}{Phased light curve of J1227, repeated over two cycles for clarity, with each colour corresponding to a different filter as in the legend}{figure.caption.170}{}}
\@writefile{toc}{\contentsline {subsection}{\numberline {3.2.2}Observations of J1227}{88}{subsection.173}\protected@file@percent }
\newlabel{sec:J1227obs}{{3.2.2}{88}{Observations of J1227}{subsection.173}{}}
\newlabel{RF1}{89}
\@writefile{lot}{\contentsline {table}{\numberline {3.1}{\ignorespaces Table of observations of J1227 and J1023, with information gathered from the ULTRACAM online logs and reduction files.}}{89}{table.caption.172}\protected@file@percent }
\newlabel{table:observations}{{3.1}{89}{Table of observations of J1227 and J1023, with information gathered from the ULTRACAM online logs and reduction files}{table.caption.172}{}}
\citation{Roy2015}
\@writefile{lof}{\contentsline {figure}{\numberline {3.2}{\ignorespaces Phased light curve of J1023, clearly showing the asymmetry around phase 0.75.}}{90}{figure.caption.171}\protected@file@percent }
\newlabel{fig:J1023_lc}{{3.2}{90}{Phased light curve of J1023, clearly showing the asymmetry around phase 0.75}{figure.caption.171}{}}
\citation{Li2014}
\@writefile{toc}{\contentsline {subsection}{\numberline {3.2.3}Observations of J1023}{91}{subsection.174}\protected@file@percent }
\newlabel{sec:J1023obs}{{3.2.3}{91}{Observations of J1023}{subsection.174}{}}
\citation{Shahbaz2019}
\citation{McConnell2018}
\citation{Shahbaz2019}
\citation{McConnell2018}
\citation{Schroeder2014}
\citation{Romani2016}
\citation{Kandel2020}
\citation{Zilles2020}
\citation{Lothringer2020,Komacek2020,Jackson2019}
\citation{Martin1995}
\citation{Tan2020}
\citation{Voisin2020}
\citation{deWit2012}
\citation{Demory2013}
\@writefile{toc}{\contentsline {subsection}{\numberline {3.2.4}Radial Velocities}{92}{subsection.175}\protected@file@percent }
\newlabel{sec:radvel}{{3.2.4}{92}{Radial Velocities}{subsection.175}{}}
\@writefile{toc}{\contentsline {section}{\numberline {3.3}Asymmetries}{92}{section.176}\protected@file@percent }
\newlabel{sec:asymm}{{3.3}{92}{Asymmetries}{section.176}{}}
\newlabel{RF2}{93}
\@writefile{lof}{\contentsline {figure}{\numberline {3.3}{\ignorespaces i$_{\rm  s}$, g$_{\rm  s}$, and u$_{\rm  s}$\ light curves of J1023 overlaid with the same light curves mirrored about phase 0.5, illustrating the asymmetries, with residuals.}}{93}{figure.caption.177}\protected@file@percent }
\newlabel{fig:symmetriesJ1023}{{3.3}{93}{i$_{\rm s}$, g$_{\rm s}$, and u$_{\rm s}$\ light curves of J1023 overlaid with the same light curves mirrored about phase 0.5, illustrating the asymmetries, with residuals}{figure.caption.177}{}}
\citation{Romani2021}
\citation{Schaffenroth2019}
\citation{Breton2012}
\citation{Castelli2003}
\citation{Lucy1967}
\@writefile{toc}{\contentsline {section}{\numberline {3.4}Numerical modelling}{95}{section.179}\protected@file@percent }
\newlabel{sec:numericalmodelling}{{3.4}{95}{Numerical modelling}{section.179}{}}
\@writefile{toc}{\contentsline {subsection}{\numberline {3.4.1}Icarus}{95}{subsection.180}\protected@file@percent }
\newlabel{sec:Icarus}{{3.4.1}{95}{Icarus}{subsection.180}{}}
\newlabel{RF3}{96}
\@writefile{lof}{\contentsline {figure}{\numberline {3.4}{\ignorespaces As figure \ref  {fig:symmetriesJ1023}, for J1227.}}{96}{figure.caption.178}\protected@file@percent }
\newlabel{fig:symmetriesJ1227}{{3.4}{96}{As figure \ref {fig:symmetriesJ1023}, for J1227}{figure.caption.178}{}}
\citation{Roy2015}
\citation{Archibald2009}
\citation{Feroz2009}
\citation{Buchner2014}
\newlabel{eq:qFromK}{{3.1}{97}{Icarus}{equation.181}{}}
\@writefile{toc}{\contentsline {subsection}{\numberline {3.4.2}Standard symmetrical direct heating model}{97}{subsection.182}\protected@file@percent }
\newlabel{sec:symmmodel}{{3.4.2}{97}{Standard symmetrical direct heating model}{subsection.182}{}}
\citation{deMartino2014}
\citation{deMartino2015}
\citation{Luri2018}
\citation{Leavin2013}
\citation{deMartino2014}
\citation{Wade1988}
\citation{Roy2015}
\citation{Deller2012}
\citation{Thorstensen2005}
\citation{Deller2012}
\citation{Shahbaz2019}
\@writefile{lof}{\contentsline {figure}{\numberline {3.5}{\ignorespaces Distance prior distribution for J1227, in black, showing component distributions.}}{99}{figure.caption.184}\protected@file@percent }
\newlabel{fig:distpriors}{{3.5}{99}{Distance prior distribution for J1227, in black, showing component distributions}{figure.caption.184}{}}
\citation{Cardelli1989}
\citation{deMartino2014}
\citation{deMartino2010}
\citation{Shahbaz2015}
\citation{Green2018}
\citation{Schlafly2011}
\citation{Shahbaz2017,Romani2016,Nieder2020}
\citation{Clark2021}
\@writefile{toc}{\contentsline {subsection}{\numberline {3.4.3}Single-spot heating model}{100}{subsection.186}\protected@file@percent }
\newlabel{sec:spotmodel}{{3.4.3}{100}{Single-spot heating model}{subsection.186}{}}
\citation{Shahbaz2019}
\citation{Shahbaz2019}
\citation{Voisin2020}
\citation{KandelRomani2020}
\citation{Voisin2020}
\@writefile{lof}{\contentsline {figure}{\numberline {3.6}{\ignorespaces Radial velocity fitting curve for J1023.}}{101}{figure.caption.187}\protected@file@percent }
\newlabel{fig:mcmc18-keff}{{3.6}{101}{Radial velocity fitting curve for J1023}{figure.caption.187}{}}
\citation{Voisin2020}
\citation{KandelRomani2020}
\@writefile{toc}{\contentsline {subsection}{\numberline {3.4.4}Heat redistribution}{102}{subsection.188}\protected@file@percent }
\newlabel{sec:hr}{{3.4.4}{102}{Heat redistribution}{subsection.188}{}}
\newlabel{eq:nrjredist}{{3.4}{102}{Heat redistribution}{equation.189}{}}
\newlabel{eq:hr_law}{{3.5}{102}{Heat redistribution}{equation.190}{}}
\citation{deMartino2014}
\citation{deMartino2015}
\citation{deMartino2015}
\@writefile{toc}{\contentsline {section}{\numberline {3.5}Results}{103}{section.193}\protected@file@percent }
\newlabel{sec:results}{{3.5}{103}{Results}{section.193}{}}
\@writefile{toc}{\contentsline {subsection}{\numberline {3.5.1}J1227}{103}{subsection.194}\protected@file@percent }
\newlabel{sec:J1227results}{{3.5.1}{103}{J1227}{subsection.194}{}}
\@writefile{toc}{\contentsline {subsubsection}{Standard model}{103}{section*.195}\protected@file@percent }
\newlabel{sec:J1227symresults}{{3.5.1}{103}{Standard model}{section*.195}{}}
\newlabel{table:J1227}{{\caption@xref {table:J1227}{ on input line 442}}{104}{Heat redistribution}{table.caption.191}{}}
\@writefile{lot}{\contentsline {table}{\numberline {3.2}{\ignorespaces Numerical results for the modelling of J1227; including from top to bottom the model parameters, selected derived parameters, and model statistics.}}{104}{table.caption.191}\protected@file@percent }
\newlabel{table:J1227}{{3.2}{104}{Numerical results for the modelling of J1227; including from top to bottom the model parameters, selected derived parameters, and model statistics}{table.caption.191}{}}
\newlabel{RF4}{105}
\@writefile{lof}{\contentsline {figure}{\numberline {3.7}{\ignorespaces \textit  {Left: }i$_{\rm  s}$, g$_{\rm  s}$, and u$_{\rm  s}$\ light curves of J1227 overlaid with the best fit hot spot model.}}{105}{figure.caption.192}\protected@file@percent }
\newlabel{fig:J1227HRFit}{{3.7}{105}{\textit {Left: }i$_{\rm s}$, g$_{\rm s}$, and u$_{\rm s}$\ light curves of J1227 overlaid with the best fit hot spot model}{figure.caption.192}{}}
\citation{deMartino2014}
\@writefile{toc}{\contentsline {subsubsection}{Hot spot model}{106}{section*.196}\protected@file@percent }
\@writefile{toc}{\contentsline {subsubsection}{Cold Spots}{106}{section*.198}\protected@file@percent }
\newlabel{sec:J1227coldspots}{{3.5.1}{106}{Cold Spots}{section*.198}{}}
\@writefile{lof}{\contentsline {figure}{\numberline {3.8}{\ignorespaces Corner plot of selected parameters of the J1227 hot spot model.}}{107}{figure.caption.197}\protected@file@percent }
\newlabel{fig:J1227corner}{{3.8}{107}{Corner plot of selected parameters of the J1227 hot spot model}{figure.caption.197}{}}
\citation{deMartino2014}
\citation{deMartino2014}
\citation{deMartino2014}
\citation{deMartino2014}
\@writefile{toc}{\contentsline {subsubsection}{Heat redistribution}{108}{section*.199}\protected@file@percent }
\@writefile{toc}{\contentsline {subsubsection}{Modelling assuming a filled Roche lobe}{108}{section*.200}\protected@file@percent }
\newlabel{sec:J1227fixedRL}{{3.5.1}{108}{Modelling assuming a filled Roche lobe}{section*.200}{}}
\@writefile{toc}{\contentsline {subsubsection}{Modelling with fixed inclination}{108}{section*.201}\protected@file@percent }
\newlabel{sec:J1227fixed}{{3.5.1}{108}{Modelling with fixed inclination}{section*.201}{}}
\citation{Romani2016a,Clark2021}
\@writefile{lof}{\contentsline {figure}{\numberline {3.9}{\ignorespaces The mass ratio calculated from the centre-of-light $K_{\rm  eff}$ value, in red, provides us with a lower limit of the pulsar mass for each inclination, while the best-fit mass ratio from each fit's $K_2$ is in green.}}{110}{figure.caption.202}\protected@file@percent }
\newlabel{fig:J1227-massmass}{{3.9}{110}{The mass ratio calculated from the centre-of-light $K_{\rm eff}$ value, in red, provides us with a lower limit of the pulsar mass for each inclination, while the best-fit mass ratio from each fit's $K_2$ is in green}{figure.caption.202}{}}
\citation{Archibald2009}
\citation{Thorstensen2005}
\citation{Archibald2009}
\citation{Deller2012}
\citation{Archibald2009}
\citation{Shahbaz2019}
\@writefile{lot}{\contentsline {table}{\numberline {3.3}{\ignorespaces Model parameters and MultiNest evidence for fixed-inclination modelling of J1227 at $i=50\text  {\textdegree , }60\text  {\textdegree , }70\text  {\textdegree }$.}}{111}{table.caption.203}\protected@file@percent }
\newlabel{table:inclination_results}{{3.3}{111}{Model parameters and MultiNest evidence for fixed-inclination modelling of J1227 at $i=50\text {\textdegree , }60\text {\textdegree , }70\text {\textdegree }$}{table.caption.203}{}}
\@writefile{toc}{\contentsline {subsection}{\numberline {3.5.2}J1023}{111}{subsection.205}\protected@file@percent }
\newlabel{sec:J1023results}{{3.5.2}{111}{J1023}{subsection.205}{}}
\@writefile{toc}{\contentsline {subsubsection}{Standard model}{111}{section*.206}\protected@file@percent }
\newlabel{sec:J1023symresults}{{3.5.2}{111}{Standard model}{section*.206}{}}
\newlabel{table:J1023table}{{\caption@xref {table:J1023table}{ on input line 676}}{112}{Modelling with fixed inclination}{table.caption.204}{}}
\@writefile{lot}{\contentsline {table}{\numberline {3.4}{\ignorespaces Numerical results for the modelling of J1023; including from top to bottom the model parameters, selected derived parameters, and model statistics.}}{112}{table.caption.204}\protected@file@percent }
\newlabel{table:J1023table}{{3.4}{112}{Numerical results for the modelling of J1023; including from top to bottom the model parameters, selected derived parameters, and model statistics}{table.caption.204}{}}
\citation{Archibald2009}
\citation{Deller2012}
\citation{Kandel2020}
\@writefile{toc}{\contentsline {subsubsection}{Hot spot model}{113}{section*.208}\protected@file@percent }
\newlabel{sec:J1023spotresults}{{3.5.2}{113}{Hot spot model}{section*.208}{}}
\@writefile{toc}{\contentsline {subsubsection}{Heat redistribution}{113}{section*.209}\protected@file@percent }
\newlabel{RF5}{114}
\@writefile{lof}{\contentsline {figure}{\numberline {3.10}{\ignorespaces \textit  {Left: }i$_{\rm  s}$, g$_{\rm  s}$, and u$_{\rm  s}$\ light curves of J1023 overlaid with the best fit hot spot model, with 40 phase bins in black, and temperature distribution of companion.}}{114}{figure.caption.207}\protected@file@percent }
\newlabel{fig:J1023-spot-model}{{3.10}{114}{\textit {Left: }i$_{\rm s}$, g$_{\rm s}$, and u$_{\rm s}$\ light curves of J1023 overlaid with the best fit hot spot model, with 40 phase bins in black, and temperature distribution of companion}{figure.caption.207}{}}
\citation{Archibald2013}
\@writefile{toc}{\contentsline {section}{\numberline {3.6}Discussion}{115}{section.210}\protected@file@percent }
\newlabel{sec:discussion}{{3.6}{115}{Discussion}{section.210}{}}
\@writefile{toc}{\contentsline {subsection}{\numberline {3.6.1}Filling factor}{115}{subsection.211}\protected@file@percent }
\newlabel{sec:discussionfilling}{{3.6.1}{115}{Filling factor}{subsection.211}{}}
\@writefile{lof}{\contentsline {figure}{\numberline {3.11}{\ignorespaces Relationship between filling factor, $f$, and the volume-averaged filling factor.}}{116}{figure.caption.212}\protected@file@percent }
\newlabel{fig:vaf}{{3.11}{116}{Relationship between filling factor, $f$, and the volume-averaged filling factor}{figure.caption.212}{}}
\citation{KW2012}
\citation{Soker2015}
\citation{Soker2015}
\citation{Eggleton}
\newlabel{eq:KH}{{3.6}{117}{Filling factor}{equation.213}{}}
\citation{deMartino2014,deMartino2015}
\@writefile{toc}{\contentsline {subsection}{\numberline {3.6.2}Asymmetries}{118}{subsection.214}\protected@file@percent }
\newlabel{sec:asymm_disc}{{3.6.2}{118}{Asymmetries}{subsection.214}{}}
\citation{Breton2012}
\@writefile{lof}{\contentsline {figure}{\numberline {3.12}{\ignorespaces Companion star temperature distribution for the best-fit heat redistribution (HR1) model of J1023.}}{119}{figure.caption.215}\protected@file@percent }
\newlabel{fig:J1023_HR_model}{{3.12}{119}{Companion star temperature distribution for the best-fit heat redistribution (HR1) model of J1023}{figure.caption.215}{}}
\@writefile{toc}{\contentsline {subsection}{\numberline {3.6.3}J1227}{119}{subsection.216}\protected@file@percent }
\newlabel{sec:J1227disc}{{3.6.3}{119}{J1227}{subsection.216}{}}
\citation{Kandel2020}
\citation{Watson2007}
\citation{Watson2007}
\@writefile{toc}{\contentsline {subsection}{\numberline {3.6.4}J1023}{120}{subsection.218}\protected@file@percent }
\newlabel{sec:J1023disc}{{3.6.4}{120}{J1023}{subsection.218}{}}
\@writefile{lof}{\contentsline {figure}{\numberline {3.13}{\ignorespaces Corner plot of selected parameters of the J1023 hot spot model.}}{121}{figure.caption.219}\protected@file@percent }
\newlabel{fig:J1023_corner}{{3.13}{121}{Corner plot of selected parameters of the J1023 hot spot model}{figure.caption.219}{}}
\citation{Shahbaz2019}
\citation{Romani2016}
\citation{Shahbaz2019}
\citation{deMartino2014}
\@writefile{lof}{\contentsline {figure}{\numberline {3.14}{\ignorespaces Residuals per band for the best-fitting hot spot model of J1023; note that the $y$-axis is in units of flux.}}{123}{figure.caption.220}\protected@file@percent }
\newlabel{fig:J1023M18res}{{3.14}{123}{Residuals per band for the best-fitting hot spot model of J1023; note that the $y$-axis is in units of flux}{figure.caption.220}{}}
\@writefile{toc}{\contentsline {section}{\numberline {3.7}Conclusions}{123}{section.221}\protected@file@percent }
\newlabel{sec:conclusion}{{3.7}{123}{Conclusions}{section.221}{}}
\@setckpt{Chapters/tmsps}{
\setcounter{page}{125}
\setcounter{equation}{7}
\setcounter{enumi}{4}
\setcounter{enumii}{0}
\setcounter{enumiii}{0}
\setcounter{enumiv}{0}
\setcounter{footnote}{0}
\setcounter{mpfootnote}{0}
\setcounter{part}{0}
\setcounter{chapter}{3}
\setcounter{section}{7}
\setcounter{subsection}{0}
\setcounter{subsubsection}{0}
\setcounter{paragraph}{0}
\setcounter{subparagraph}{0}
\setcounter{figure}{14}
\setcounter{table}{4}
\setcounter{LT@tables}{1}
\setcounter{LT@chunks}{2}
\setcounter{caption@flags}{0}
\setcounter{ContinuedFloat}{0}
\setcounter{r@tfl@t}{5}
\setcounter{parentequation}{0}
\setcounter{subfigure}{0}
\setcounter{subtable}{0}
\setcounter{lstnumber}{1}
\setcounter{NAT@ctr}{0}
\setcounter{Item}{4}
\setcounter{Hfootnote}{2}
\setcounter{bookmark@seq@number}{102}
\setcounter{lstlisting}{0}
\setcounter{section@level}{1}
}
