\relax 
\providecommand\HyperFirstAtBeginDocument{\AtBeginDocument}
\HyperFirstAtBeginDocument{\ifx\hyper@anchor\@undefined
\global\let\oldcontentsline\contentsline
\gdef\contentsline#1#2#3#4{\oldcontentsline{#1}{#2}{#3}}
\global\let\oldnewlabel\newlabel
\gdef\newlabel#1#2{\newlabelxx{#1}#2}
\gdef\newlabelxx#1#2#3#4#5#6{\oldnewlabel{#1}{{#2}{#3}}}
\AtEndDocument{\ifx\hyper@anchor\@undefined
\let\contentsline\oldcontentsline
\let\newlabel\oldnewlabel
\fi}
\fi}
\global\let\hyper@last\relax 
\gdef\HyperFirstAtBeginDocument#1{#1}
\providecommand\HyField@AuxAddToFields[1]{}
\providecommand\HyField@AuxAddToCoFields[2]{}
\babel@aux{english}{}
\@writefile{toc}{\contentsline {chapter}{Contents}{2}{chapter*.2}\protected@file@percent }
\@writefile{toc}{\contentsline {chapter}{List of Figures}{10}{chapter*.3}\protected@file@percent }
\citation{Jayasinghe2018}
\@writefile{toc}{\contentsline {chapter}{List of Tables}{11}{chapter*.4}\protected@file@percent }
\gdef \LT@i {\LT@entry 
    {1}{69.9303pt}\LT@entry 
    {1}{275.26746pt}}
\@writefile{toc}{\contentsline {chapter}{Abbreviations}{12}{table.6}\protected@file@percent }
\@writefile{toc}{\contentsline {chapter}{Abstract}{14}{section*.7}\protected@file@percent }
\@writefile{toc}{\contentsline {chapter}{Declaration of Authorship}{15}{section*.8}\protected@file@percent }
\@writefile{toc}{\contentsline {chapter}{Copyright Statement}{16}{section*.9}\protected@file@percent }
\@writefile{toc}{\contentsline {chapter}{Acknowledgements}{17}{section*.14}\protected@file@percent }
\@input{Chapters/litreview.aux}
\@input{Chapters/observations.aux}
\@input{Chapters/tmsps.aux}
\@input{Chapters/goto.aux}
\@input{Chapters/Conclusions.aux}
\bibstyle{mnras}
\bibdata{Bibliography}
\bibcite{FERMI2020}{{1}{2020}{{{Abdollahi} et~al.}}{{{Abdollahi} et~al.,}}}
\bibcite{Akhter2013}{{2}{2013}{{{Akhter} et~al.}}{{{Akhter}, {Da Costa}, {Keller}, {Schmidt}, {Bessell} \& {Tisserand}}}}
\bibcite{Alpar1982}{{3}{1982}{{{Alpar} et~al.}}{{{Alpar}, {Cheng}, {Ruderman} \& {Shaham}}}}
\bibcite{Andreoni2020}{{4}{2020}{{{Andreoni} et~al.}}{{{Andreoni} et~al.,}}}
\bibcite{Applegate2002}{{5}{1992}{{Applegate}}{{Applegate}}}
\bibcite{Applegate1994}{{6}{1994}{{Applegate \& Shaham}}{{Applegate \& Shaham}}}
\bibcite{Archibald2009}{{7}{2009}{{{Archibald} et~al.}}{{{Archibald} et~al.,}}}
\bibcite{Archibald2013}{{8}{2013}{{{Archibald} et~al.}}{{{Archibald}, {Kaspi}, {Hessels}, {Stappers}, {Janssen} \& {Lyne}}}}
\bibcite{Arzoumanian1994}{{9}{1994}{{Arzoumanian et~al.}}{{Arzoumanian, Fruchter \& Taylor}}}
\bibcite{Asseo1993}{{10}{1993}{{Asseo}}{{Asseo}}}
\bibcite{Baglio2016}{{11}{2016}{{Baglio et~al.}}{{Baglio, D'Avanzo, Campana, Zelati, Covino \& Russell}}}
\bibcite{Baluev2013}{{12}{2013}{{{Baluev}}}{{{Baluev}}}}
\bibcite{Bassa2014tmsp}{{13}{2014a}{{{Bassa} et~al.}}{{{Bassa} et~al.,}}}
\bibcite{Bassa2014}{{14}{2014b}{{Bassa et~al.}}{{Bassa et~al.,}}}
\bibcite{hotpants}{{15}{2015}{{{Becker}}}{{{Becker}}}}
\bibcite{Bedding1998}{{16}{1998}{{Bedding \& Zijlstra}}{{Bedding \& Zijlstra}}}
\bibcite{Bellm2018}{{17}{2018}{{Bellm et~al.}}{{Bellm et~al.,}}}
\newlabel{Bibliography}{{5.2}{185}{Conclusions}{section.330}{}}
\bibcite{Benvenuto2014}{{18}{2014}{{Benvenuto et~al.}}{{Benvenuto, {De Vito} \& Horvath}}}
\bibcite{sextractor}{{19}{1996}{{{Bertin} \& {Arnouts}}}{{{Bertin} \& {Arnouts}}}}
\bibcite{Bhattacharya2002a}{{20}{2002}{{Bhattacharya}}{{Bhattacharya}}}
\bibcite{Bhattacharya1991}{{21}{1991}{{Bhattacharya \& van~den Heuvel}}{{Bhattacharya \& van~den Heuvel}}}
\bibcite{Bhattacharyya2013}{{22}{2013}{{Bhattacharyya et~al.}}{{Bhattacharyya et~al.}}}
\bibcite{Bingham1984}{{23}{1984}{{{Bingham} et~al.}}{{{Bingham}, {Cacciari}, {Dickens} \& {Pecci}}}}
\bibcite{Bloemen2015}{{24}{2015}{{{Bloemen} et~al.}}{{{Bloemen}, {Groot}, {Nelemans} \& {Klein-Wolt}}}}
\bibcite{Bloemen2016}{{25}{2016}{{{Bloemen} et~al.}}{{{Bloemen} et~al.,}}}
\bibcite{Boden2001}{{26}{2001}{{{Boden} \& {Lane}}}{{{Boden} \& {Lane}}}}
\bibcite{Bogdanov2014}{{27}{2014}{{{Bogdanov} et~al.}}{{{Bogdanov}, {Patruno}, {Archibald}, {Bassa}, {Hessels}, {Janssen} \& {Stappers}}}}
\bibcite{Bond2002}{{28}{2002}{{{Bond} et~al.}}{{{Bond}, {White}, {Becker} \& {O'Brien}}}}
\bibcite{Bonnet2012}{{29}{2012}{{{Bonnet-Bidaud} et~al.}}{{{Bonnet-Bidaud}, {de Martino}, {Mouchet}, {Falanga}, {Belloni}, {Masetti}, {Mukai} \& {Matt}}}}
\bibcite{Breiman2001}{{30}{2001}{{Breiman}}{{Breiman}}}
\bibcite{Breton2008}{{31}{2008}{{{Breton} et~al.}}{{{Breton} et~al.,}}}
\bibcite{Breton2012}{{32}{2012}{{Breton et~al.}}{{Breton, Rappaport, van Kerkwijk \& Carter}}}
\bibcite{Breton2013}{{33}{2013}{{{Breton} et~al.}}{{{Breton} et~al.,}}}
\bibcite{Britt2017}{{34}{2017}{{{Britt} et~al.}}{{{Britt}, {Strader}, {Chomiuk}, {Tremou}, {Peacock}, {Halpern} \& {Salinas}}}}
\bibcite{Buchner2014}{{35}{2014}{{{Buchner, J.} et~al.}}{{{Buchner, J.} et~al.,}}}
\bibcite{Buhlmann2002}{{36}{2002}{{B\IeC {\"u}hlmann}}{{B\IeC {\"u}hlmann}}}
\bibcite{Cardelli1989}{{37}{1989}{{{Cardelli} et~al.}}{{{Cardelli}, {Clayton} \& {Mathis}}}}
\bibcite{Castelli2003}{{38}{2003}{{{Castelli} \& {Kurucz}}}{{{Castelli} \& {Kurucz}}}}
\bibcite{Cerutti2014}{{39}{2014}{{Cerutti et~al.}}{{Cerutti, Werner, Uzdensky \& Begelman}}}
\bibcite{Chakrabarty1998b}{{40}{1998}{{Chakrabarty \& Morgan}}{{Chakrabarty \& Morgan}}}
\bibcite{Chen2014}{{41}{2014}{{Chen \& Beloborodov}}{{Chen \& Beloborodov}}}
\bibcite{Chen1993a}{{42}{1993}{{{Chen} \& {Ruderman}}}{{{Chen} \& {Ruderman}}}}
\bibcite{Chen2006a}{{43}{2006}{{{Chen} et~al.}}{{{Chen}, {Li} \& {Qian}}}}
\bibcite{Chen2013}{{44}{2013}{{Chen et~al.}}{{Chen, Chen, Tauris \& Han}}}
\bibcite{Cheng1986}{{45}{1986}{{Cheng et~al.}}{{Cheng, Ho \& Ruderman}}}
\bibcite{Chinarova2000}{{46}{2000}{{{Chinarova} \& {Andronov}}}{{{Chinarova} \& {Andronov}}}}
\bibcite{Clark2021}{{47}{2021}{{Clark et~al.}}{{Clark et~al.,}}}
\bibcite{Ontopoulos1999}{{48}{1999}{{Contopoulos et~al.}}{{Contopoulos, Kazanas \& Fendt}}}
\bibcite{Cordes1978}{{49}{1978}{{Cordes}}{{Cordes}}}
\bibcite{CotiZelati2019}{{50}{2019}{{{Coti Zelati} et~al.}}{{{Coti Zelati} et~al.,}}}
\bibcite{Cumming1999}{{51}{1999}{{Cumming et~al.}}{{Cumming, Marcy \& Butler}}}
\bibcite{Cumming2001}{{52}{2001}{{{Cumming} et~al.}}{{{Cumming}, {Zweibel} \& {Bildsten}}}}
\bibcite{Dambis2013}{{53}{2013}{{Dambis et~al.}}{{Dambis, Berdnikov, Kniazev, Kravtsov, Rastorguev, Sefako \& Vozyakova}}}
\bibcite{DeFalco2017}{{54}{2017}{{{De Falco} et~al.}}{{{De Falco}, {Kuiper}, {Bozzo}, {Ferrigno}, {Poutanen}, {Stella} \& {Falanga}}}}
\bibcite{Deeming1975}{{55}{1975}{{{Deeming}}}{{{Deeming}}}}
\bibcite{Deller2012}{{56}{2012}{{{Deller} et~al.}}{{{Deller} et~al.,}}}
\bibcite{Deller2015}{{57}{2015}{{Deller et~al.}}{{Deller, Moldon, Patruno, Hessels, Archibald, Paragi, Heald \& Vilchez}}}
\bibcite{Demory2013}{{58}{2013}{{{Demory} et~al.}}{{{Demory} et~al.,}}}
\bibcite{Dhillon2007}{{59}{2007}{{{Dhillon} et~al.}}{{{Dhillon} et~al.,}}}
\bibcite{hipercam}{{60}{2016}{{Dhillon et~al.}}{{Dhillon et~al.}}}
\bibcite{Dhillon2018}{{61}{2018}{{{Dhillon} et~al.}}{{{Dhillon} et~al.,}}}
\bibcite{Dyer2020}{{62}{2020}{{{Dyer} et~al.}}{{{Dyer} et~al.,}}}
\bibcite{Eggleton}{{63}{1983}{{{Eggleton}}}{{{Eggleton}}}}
\bibcite{Feast1989}{{64}{1989}{{{Feast} et~al.}}{{{Feast}, {Glass}, {Whitelock} \& {Catchpole}}}}
\bibcite{Feroz2009}{{65}{2009}{{Feroz et~al.}}{{Feroz, Hobson \& Bridges}}}
\bibcite{Ferraro2001}{{66}{2001}{{Ferraro et~al.}}{{Ferraro, Possenti, D'Amico \& Sabbi}}}
\bibcite{Fowler2003}{{67}{2003}{{{Fowler} \& {Kilsby}}}{{{Fowler} \& {Kilsby}}}}
\bibcite{Fruchter1988}{{68}{1988}{{Fruchter et~al.}}{{Fruchter, Stinebring \& Taylor}}}
\bibcite{Fruchter1990}{{69}{1990}{{Fruchter et~al.}}{{Fruchter et~al.}}}
\bibcite{Fukugita1996}{{70}{1996}{{{Fukugita} et~al.}}{{{Fukugita}, {Ichikawa}, {Gunn}, {Doi}, {Shimasaku} \& {Schneider}}}}
\bibcite{GAIAmission}{{71}{2016}{{{Gaia Collaboration} et~al.}}{{{Gaia Collaboration} et~al.,}}}
\bibcite{GAIA2018}{{72}{2018}{{{Gaia Collaboration} et~al.}}{{{Gaia Collaboration} et~al.,}}}
\bibcite{Giuricin1981}{{73}{1981}{{{Giuricin} \& {Mardirossian}}}{{{Giuricin} \& {Mardirossian}}}}
\bibcite{Glendenning1992}{{74}{1992}{{Glendenning}}{{Glendenning}}}
\bibcite{Gold1968}{{75}{1968}{{{Gold}}}{{{Gold}}}}
\bibcite{Julian1969}{{76}{1969}{{{Goldreich} \& {Julian}}}{{{Goldreich} \& {Julian}}}}
\bibcite{Gompertz2020}{{77}{2020}{{{Gompertz} et~al.}}{{{Gompertz} et~al.,}}}
\bibcite{Graham2013b}{{78}{2013a}{{Graham et~al.}}{{Graham, Drake, Djorgovski, Mahabal \& Donalek}}}
\bibcite{Graham2013}{{79}{2013b}{{Graham et~al.}}{{Graham, Drake, Djorgovski, Mahabal, Donalek, Duan \& Maker}}}
\bibcite{Green2018}{{80}{2018}{{{Green} et~al.}}{{{Green} et~al.,}}}
\bibcite{Groot2019}{{81}{2019}{{{Groot} et~al.}}{{{Groot}, {Bloemen} \& {Jonker}}}}
\bibcite{Gunn2006}{{82}{2006}{{Gunn et~al.}}{{Gunn et~al.,}}}
\bibcite{Hall1992}{{83}{1992}{{{Hall} \& {Henry}}}{{{Hall} \& {Henry}}}}
\bibcite{Harding1986}{{84}{1986}{{Harding}}{{Harding}}}
\bibcite{Harding2002}{{85}{2002}{{{Harding} \& {Muslimov}}}{{{Harding} \& {Muslimov}}}}
\bibcite{Harmanec1993}{{86}{1993}{{{Harmanec} \& {Scholz}}}{{{Harmanec} \& {Scholz}}}}
\bibcite{Helfand2001}{{87}{2001}{{Helfand et~al.}}{{Helfand, Gotthelf \& Halpern}}}
\bibcite{Santisteban2016}{{88}{2016}{{{Hern{\'a}ndez Santisteban} et~al.}}{{{Hern{\'a}ndez Santisteban} et~al.,}}}
\bibcite{Hessels2006}{{89}{2006}{{{Hessels} et~al.}}{{{Hessels}, Ransom, Stairs, Freire, Kaspi \& Camilo}}}
\bibcite{Hester2002}{{90}{2002}{{Hester et~al.}}{{Hester et~al.}}}
\bibcite{Hewish1968}{{91}{1968}{{{Hewish} et~al.}}{{{Hewish}, {Bell}, {Pilkington}, {Scott} \& {Collins}}}}
\bibcite{Hinderer2010}{{92}{2010}{{{Hinderer} et~al.}}{{{Hinderer}, {Lackey}, {Lang} \& {Read}}}}
\bibcite{PTA2010}{{93}{2010}{{{Hobbs} et~al.}}{{{Hobbs} et~al.,}}}
\bibcite{VanderPlas2021}{{94}{2021}{{{Hoffman} et~al.}}{{{Hoffman}, {Vanderplas}, {Hartman} \& {Bakos}}}}
\bibcite{HoneyCutt1992}{{95}{1992}{{{Honeycutt}}}{{{Honeycutt}}}}
\bibcite{Huijse2018}{{96}{2018}{{Huijse et~al.}}{{Huijse, Est{\'{e}}vez, F\IeC {\"o}rster, Daniel, Connolly, Protopapas, Carrasco \& Pr{\'{\i }}ncipe}}}
\bibcite{Hulse1975}{{97}{1975}{{Hulse \& Taylor}}{{Hulse \& Taylor}}}
\bibcite{Illarionov1975}{{98}{1975}{{{Illarionov} \& {Sunyaev}}}{{{Illarionov} \& {Sunyaev}}}}
\bibcite{Ireland2004}{{99}{2004}{{Ireland et~al.}}{{Ireland, Scholz, Tuthill \& Wood}}}
\bibcite{Jackson1962}{{100}{1962}{{{Jackson}}}{{{Jackson}}}}
\bibcite{Jackson2019}{{101}{2019}{{{Jackson} et~al.}}{{{Jackson}, {Adams}, {Sandidge}, {Kreyche} \& {Briggs}}}}
\bibcite{Jaodand2016}{{102}{2016}{{{Jaodand} et~al.}}{{{Jaodand}, {Archibald}, {Hessels}, {Bogdanov}, {D'Angelo}, {Patruno}, {Bassa} \& {Deller}}}}
\bibcite{Jaodand2021}{{103}{2021}{{{Jaodand} et~al.}}{{{Jaodand} et~al.,}}}
\bibcite{Jayasinghe2018}{{104}{2018}{{Jayasinghe et~al.}}{{Jayasinghe et~al.,}}}
\bibcite{Jayasinghe2018b}{{105}{2019}{{{Jayasinghe} et~al.}}{{{Jayasinghe} et~al.,}}}
\bibcite{Johnson2015}{{106}{2015}{{{Johnson} et~al.}}{{{Johnson} et~al.,}}}
\bibcite{Kalapotharakos2009}{{107}{2009}{{Kalapotharakos \& Contopoulos}}{{Kalapotharakos \& Contopoulos}}}
\bibcite{KandelRomani2020}{{108}{2020}{{{Kandel} \& {Romani}}}{{{Kandel} \& {Romani}}}}
\bibcite{Kandel2020}{{109}{2020}{{{Kandel} et~al.}}{{{Kandel}, {Romani}, {Filippenko}, {Brink} \& {Zheng}}}}
\bibcite{Kaplan2013}{{110}{2013}{{Kaplan et~al.}}{{Kaplan, Bhalerao, {Van Kerkwijk}, Koester, Kulkarni \& Stovall}}}
\bibcite{Kaspi2002}{{111}{2002}{{Kaspi \& Helfand}}{{Kaspi \& Helfand}}}
\bibcite{Keane2018}{{112}{2018}{{Keane et~al.}}{{Keane et~al.,}}}
\bibcite{J2241a}{{113}{2011}{{Keith et~al.}}{{Keith et~al.,}}}
\bibcite{Keller2007}{{114}{2007}{{{Keller} et~al.}}{{{Keller} et~al.,}}}
\bibcite{Kennedy2018}{{115}{2018}{{{Kennedy} et~al.}}{{{Kennedy}, {Clark}, {Voisin} \& {Breton}}}}
\bibcite{Kennedy2020}{{116}{2020}{{{Kennedy} et~al.}}{{{Kennedy} et~al.,}}}
\bibcite{Khechinashvili2000}{{117}{2000}{{Khechinashvili et~al.}}{{Khechinashvili, Melikidze \& Gil}}}
\bibcite{Killestein2021}{{118}{2021}{{{Killestein} et~al.}}{{{Killestein} et~al.,}}}
\bibcite{King1988}{{119}{1988}{{{King}}}{{{King}}}}
\bibcite{KW2012}{{120}{2012}{{{Kippenhahn} et~al.}}{{{Kippenhahn}, {Weigert} \& {Weiss}}}}
\bibcite{Kirk2009}{{121}{2009}{{Kirk et~al.}}{{Kirk, Lyubarsky \& P{\'{e}}tri}}}
\bibcite{Kluzniak1988}{{122}{1988}{{Kluzniak et~al.}}{{Kluzniak, Ruderman, Shaham \& Tavani}}}
\bibcite{Komacek2020}{{123}{2020}{{{Komacek} \& {Showman}}}{{{Komacek} \& {Showman}}}}
\bibcite{Komesaroff1970}{{124}{1970}{{Komesaroff}}{{Komesaroff}}}
\bibcite{Konar1997}{{125}{1997}{{{Konar} \& {Bhattacharya}}}{{{Konar} \& {Bhattacharya}}}}
\bibcite{Kramer1999}{{126}{1999}{{Kramer et~al.}}{{Kramer, Lange, Lorimer, Backer, Xilouris, Jessner \& Wielebinski}}}
\bibcite{LSST2009}{{127}{2009}{{{LSST Science Collaboration} et~al.}}{{{LSST Science Collaboration} et~al.,}}}
\bibcite{astrometrynet}{{128}{2010}{{{Lang} et~al.}}{{{Lang}, {Hogg}, {Mierle}, {Blanton} \& {Roweis}}}}
\bibcite{Lara2011}{{129}{2011}{{Lara \& Rieutord}}{{Lara \& Rieutord}}}
\bibcite{Lattimer2000}{{130}{2001}{{{Lattimer} \& {Prakash}}}{{{Lattimer} \& {Prakash}}}}
\bibcite{Lattimer2004}{{131}{2004}{{{Lattimer} \& {Prakash}}}{{{Lattimer} \& {Prakash}}}}
\bibcite{Lattimer2007}{{132}{2007}{{{Lattimer} \& {Prakash}}}{{{Lattimer} \& {Prakash}}}}
\bibcite{Lebzelter1995}{{133}{1995}{{{Lebzelter} et~al.}}{{{Lebzelter}, {Kerschbaum} \& {Hron}}}}
\bibcite{Lebzelter2018}{{134}{2018}{{{Lebzelter} et~al.}}{{{Lebzelter}, {Mowlavi}, {Marigo}, {Pastorelli}, {Trabucchi}, {Wood} \& {Lecoeur-Ta{\"\i }bi}}}}
\bibcite{Lesch1998}{{135}{1998}{{Lesch et~al.}}{{Lesch, Jessner, Kramer \& Kunzl}}}
\bibcite{Leavin2013}{{136}{2013}{{{Levin} et~al.}}{{{Levin} et~al.,}}}
\bibcite{J1628-li}{{137}{2014a}{{Li et~al.}}{{Li, Halpern \& Thorstensen}}}
\bibcite{Li2014}{{138}{2014b}{{{Li} et~al.}}{{{Li}, {Halpern} \& {Thorstensen}}}}
\bibcite{Linares2014}{{139}{2014}{{{Linares}}}{{{Linares}}}}
\bibcite{Linares2018}{{140}{2018}{{Linares}}{{Linares}}}
\bibcite{Linares2020}{{141}{2020}{{{Linares}}}{{{Linares}}}}
\bibcite{Lomb1976}{{142}{1976}{{{Lomb}}}{{{Lomb}}}}
\bibcite{LorimerLRR}{{143}{2008}{{{Lorimer}}}{{{Lorimer}}}}
\bibcite{Lorimer2004}{{144}{2004}{{{Lorimer} \& {Kramer}}}{{{Lorimer} \& {Kramer}}}}
\bibcite{Lothringer2020}{{145}{2020}{{{Lothringer} \& {Casewell}}}{{{Lothringer} \& {Casewell}}}}
\bibcite{Lucy1967}{{146}{1967}{{{Lucy}}}{{{Lucy}}}}
\bibcite{J0744-wusm}{{147}{1968}{{{Lucy}}}{{{Lucy}}}}
\bibcite{Luri2018}{{148}{2018}{{{Luri} et~al.}}{{{Luri} et~al.,}}}
\bibcite{J2017a}{{149}{2017}{{Lyapin et~al.}}{{Lyapin, Arkhangelskaja \& Larin}}}
\bibcite{Lyne1990}{{150}{1990}{{Lyne et~al.}}{{Lyne et~al.,}}}
\bibcite{Ma2009}{{151}{2009}{{Ma \& Li}}{{Ma \& Li}}}
\bibcite{Machabeli1979}{{152}{1979}{{{Machabeli} \& {Usov}}}{{{Machabeli} \& {Usov}}}}
\bibcite{Madore1982}{{153}{1982}{{{Madore}}}{{{Madore}}}}
\bibcite{Mahabal2017}{{154}{2017}{{{Mahabal} et~al.}}{{{Mahabal}, {Sheth}, {Gieseke}, {Pai}, {Djorgovski}, {Drake}, {Graham} \& {the CSS/CRTS/PTF Collaboration}}}}
\bibcite{Manchester2014}{{155}{2014}{{Manchester}}{{Manchester}}}
\bibcite{Martin1995}{{156}{1995}{{{Martin} \& {Davey}}}{{{Martin} \& {Davey}}}}
\bibcite{Masci2019a}{{157}{2019}{{{Masci} et~al.}}{{{Masci} et~al.,}}}
\bibcite{Masetti2006}{{158}{2006}{{{Masetti} et~al.}}{{{Masetti} et~al.,}}}
\bibcite{McConnell2018}{{159}{2015}{{{McConnell} et~al.}}{{{McConnell}, {Callanan}, {Kennedy}, {Hurley}, {Garnavich} \& {Menzies}}}}
\bibcite{Melrose1992}{{160}{1992}{{Melrose}}{{Melrose}}}
\bibcite{Mestel1972}{{161}{1972}{{Mestel}}{{Mestel}}}
\bibcite{Mestel1992}{{162}{1992}{{Mestel \& Pryce}}{{Mestel \& Pryce}}}
\bibcite{Milne1921}{{163}{1921}{{Milne}}{{Milne}}}
\bibcite{Mondrik2015}{{164}{2015}{{{Mondrik} et~al.}}{{{Mondrik}, {Long} \& {Marshall}}}}
\bibcite{Mong2020}{{165}{2020}{{{Mong} et~al.}}{{{Mong} et~al.,}}}
\bibcite{Narayan2018}{{166}{2018}{{{Narayan} et~al.}}{{{Narayan} et~al.,}}}
\bibcite{Nieder2020}{{167}{2020}{{{Nieder} et~al.}}{{{Nieder} et~al.,}}}
\bibcite{Oluseyi2012}{{168}{2012}{{{Oluseyi} et~al.}}{{{Oluseyi} et~al.,}}}
\bibcite{PACINI1967}{{169}{1967}{{Pacini}}{{Pacini}}}
\bibcite{Papitto2020_tmsp}{{170}{2020}{{{Papitto} \& {de Martino}}}{{{Papitto} \& {de Martino}}}}
\bibcite{Papitto2013tmsp}{{171}{2013}{{{Papitto} et~al.}}{{{Papitto} et~al.,}}}
\bibcite{Papitto2018}{{172}{2018}{{{Papitto} et~al.}}{{{Papitto} et~al.,}}}
\bibcite{Papitto2019}{{173}{2019}{{{Papitto} et~al.}}{{{Papitto} et~al.,}}}
\bibcite{Patruno2014}{{174}{2014}{{{Patruno} et~al.}}{{{Patruno} et~al.,}}}
\bibcite{scikit-learn}{{175}{2011}{{Pedregosa et~al.}}{{Pedregosa et~al.,}}}
\bibcite{Percy1999}{{176}{1999}{{{Percy} \& {Colivas}}}{{{Percy} \& {Colivas}}}}
\bibcite{Phinney1988}{{177}{1988}{{Phinney et~al.}}{{Phinney, Evans, Blandford \& Kulkarni}}}
\bibcite{J2339Plet}{{178}{2015}{{Pletsch \& Clark}}{{Pletsch \& Clark}}}
\bibcite{Podsiadlowski1991}{{179}{1991}{{Podsiadlowski}}{{Podsiadlowski}}}
\bibcite{Polzin2019}{{180}{2019}{{{Polzin} et~al.}}{{{Polzin}, {Breton}, {Stappers}, {Bhattacharyya}, {Janssen}, {Os{\l }owski}, {Roberts} \& {Sobey}}}}
\bibcite{Polzin2020}{{181}{2020}{{{Polzin} et~al.}}{{{Polzin}, {Breton}, {Bhattacharyya}, {Scholte}, {Sobey} \& {Stappers}}}}
\bibcite{Pretorius2009}{{182}{2009}{{{Pretorius}}}{{{Pretorius}}}}
\bibcite{Pringle1972}{{183}{1972}{{{Pringle} \& {Rees}}}{{{Pringle} \& {Rees}}}}
\bibcite{Pylyser1989}{{184}{1989}{{{Pylyser} \& {Savonije}}}{{{Pylyser} \& {Savonije}}}}
\bibcite{Radhakrishnan1969}{{185}{1969}{{Radhakrishnan \& Cooke}}{{Radhakrishnan \& Cooke}}}
\bibcite{Rappaport1983}{{186}{1983}{{{Rappaport} et~al.}}{{{Rappaport}, {Verbunt} \& {Joss}}}}
\bibcite{J1628-ray}{{187}{2012}{{{Ray} et~al.}}{{{Ray} et~al.,}}}
\bibcite{J2339Ray}{{188}{2014}{{{Ray} et~al.}}{{{Ray} et~al.,}}}
\bibcite{Reimann1994}{{189}{1994}{{{Reimann}}}{{{Reimann}}}}
\bibcite{Roberts2011}{{190}{2011}{{{Roberts}}}{{{Roberts}}}}
\bibcite{Roelfsema2016}{{191}{2016}{{{Roelfsema} et~al.}}{{{Roelfsema} et~al.,}}}
\bibcite{Romani1996}{{192}{1996}{{Romani}}{{Romani}}}
\bibcite{Romani2016}{{193}{2016}{{{Romani} \& {Sanchez}}}{{{Romani} \& {Sanchez}}}}
\bibcite{Romani2016a}{{194}{2016}{{{Romani} et~al.}}{{{Romani}, {Graham}, {Filippenko} \& {Zheng}}}}
\bibcite{Romani2021}{{195}{2021}{{{Romani} et~al.}}{{{Romani}, {Kandel}, {Filippenko}, {Brink} \& {Zheng}}}}
\bibcite{Rowe1995}{{196}{1995}{{Rowe}}{{Rowe}}}
\bibcite{J1227-roy}{{197}{2015a}{{{Roy} et~al.}}{{{Roy} et~al.,}}}
\bibcite{Roy2015}{{198}{2015b}{{{Roy} et~al.}}{{{Roy} et~al.,}}}
\bibcite{J0744Sal}{{199}{2017}{{Salvetti et~al.}}{{Salvetti et~al.,}}}
\bibcite{J2017b}{{200}{2016}{{Sanpa-arsa}}{{Sanpa-arsa}}}
\bibcite{Sazonov2004}{{201}{2004}{{{Sazonov} \& {Revnivtsev}}}{{{Sazonov} \& {Revnivtsev}}}}
\bibcite{Scargle1982}{{202}{1982}{{{Scargle}}}{{{Scargle}}}}
\bibcite{Schaffenroth2019}{{203}{2019}{{{Schaffenroth} et~al.}}{{{Schaffenroth} et~al.,}}}
\bibcite{Schlafly2011}{{204}{2011}{{Schlafly \& Finkbeiner}}{{Schlafly \& Finkbeiner}}}
\bibcite{Schroeder2014}{{205}{2014}{{Schroeder \& Halpern}}{{Schroeder \& Halpern}}}
\bibcite{Schuster1898}{{206}{1898}{{{Schuster}}}{{{Schuster}}}}
\bibcite{Schwarz1978}{{207}{1978}{{Schwarz}}{{Schwarz}}}
\bibcite{Schwarzenberg1996}{{208}{1996a}{{{Schwarzenberg-Czerny}}}{{{Schwarzenberg-Czerny}}}}
\bibcite{SC1996}{{209}{1996b}{{{Schwarzenberg-Czerny}}}{{{Schwarzenberg-Czerny}}}}
\bibcite{Seward2006}{{210}{2006}{{Seward et~al.}}{{Seward, Tucker \& Fesen}}}
\bibcite{Shahbaz2015}{{211}{2015}{{{Shahbaz} et~al.}}{{{Shahbaz} et~al.,}}}
\bibcite{Shahbaz2017}{{212}{2017}{{{Shahbaz} et~al.}}{{{Shahbaz}, {Linares} \& {Breton}}}}
\bibcite{Shahbaz2018b}{{213}{2018}{{{Shahbaz} et~al.}}{{{Shahbaz}, {Dallilar}, {Garner}, {Eikenberry}, {Veledina} \& {Gandhi}}}}
\bibcite{Shahbaz2019}{{214}{2019}{{{Shahbaz} et~al.}}{{{Shahbaz}, {Linares}, {Rodr{\'\i }guez-Gil} \& {Casares}}}}
\bibcite{Shappee2014}{{215}{2014}{{Shappee et~al.}}{{Shappee et~al.,}}}
\bibcite{Shklovsky1967}{{216}{1967}{{Shklovsky}}{{Shklovsky}}}
\bibcite{2MASS}{{217}{2006}{{{Skrutskie} et~al.}}{{{Skrutskie} et~al.,}}}
\bibcite{RRLyraebook}{{218}{2004}{{{Smith}}}{{{Smith}}}}
\bibcite{Soberman1997}{{219}{1997}{{Soberman et~al.}}{{Soberman, Phinney \& van~den Heuvel}}}
\bibcite{Soker2015}{{220}{2015}{{{Soker}}}{{{Soker}}}}
\bibcite{Sousa2011}{{221}{2011}{{{Sousa} et~al.}}{{{Sousa}, {Trigo}, {Aizpurua}, {Nieto}, {Gimeno} \& {Garcia-Herrera}}}}
\bibcite{Spitkovsky2002}{{222}{2002}{{Spitkovsky \& Arons}}{{Spitkovsky \& Arons}}}
\bibcite{Stairs2004}{{223}{2004}{{{Stairs}}}{{{Stairs}}}}
\bibcite{Stappers2001}{{224}{2001}{{Stappers et~al.}}{{Stappers, Bailes, Lyne, Camilo, Manchester, Sandhu, Toscano \& Bell}}}
\bibcite{Stapper2014J1023}{{225}{2014a}{{{Stappers} et~al.}}{{{Stappers} et~al.,}}}
\bibcite{Stappers2014}{{226}{2014b}{{{Stappers} et~al.}}{{{Stappers} et~al.,}}}
\bibcite{GOTO}{{227}{2017}{{{Steeghs}}}{{{Steeghs}}}}
\bibcite{Strader2016}{{228}{2016b}{{{Strader} et~al.}}{{{Strader}, {Li}, {Chomiuk}, {Heinke}, {Udalski}, {Peacock}, {Shishkovsky} \& {Tremou}}}}
\bibcite{J0427strader}{{229}{2016a}{{Strader et~al.}}{{Strader, Li, Chomiuk, Heinke, Udalski, Peacock, Shishkovsky \& Tremou}}}
\bibcite{Sturrock1971}{{230}{1971}{{Sturrock}}{{Sturrock}}}
\bibcite{Sutherland1975}{{231}{1975}{{Sutherland}}{{Sutherland}}}
\bibcite{Suveges2012}{{232}{2012}{{{Suveges}}}{{{Suveges}}}}
\bibcite{Szkody2003}{{233}{2003}{{{Szkody} et~al.}}{{{Szkody} et~al.,}}}
\bibcite{Tan2020}{{234}{2020}{{{Tan} \& {Showman}}}{{{Tan} \& {Showman}}}}
\bibcite{Tan2018}{{235}{2018}{{{Tan} et~al.}}{{{Tan} et~al.,}}}
\bibcite{Tauris2015}{{236}{2015}{{{Tauris}}}{{{Tauris}}}}
\bibcite{Tauris1999}{{237}{1999}{{Tauris \& Savonije}}{{Tauris \& Savonije}}}
\bibcite{Tauris2001}{{238}{2001}{{{Tauris} \& {Savonije}}}{{{Tauris} \& {Savonije}}}}
\bibcite{Tauris2006}{{239}{2006}{{Tauris \& van~den Heuvel}}{{Tauris \& van~den Heuvel}}}
\bibcite{Tauris2012}{{240}{2012}{{{Tauris} et~al.}}{{{Tauris}, {Langer} \& {Kramer}}}}
\bibcite{Taylor1993}{{241}{1993}{{Taylor \& Cordes}}{{Taylor \& Cordes}}}
\bibcite{Terrell2012}{{242}{2012}{{Terrell et~al.}}{{Terrell, Gross \& Cooney}}}
\bibcite{Thompson1994}{{243}{1994}{{Thompson et~al.}}{{Thompson, Blandford, Evans \& Phinney}}}
\bibcite{Thorstensen2005}{{244}{2005a}{{{Thorstensen} \& {Armstrong}}}{{{Thorstensen} \& {Armstrong}}}}
\bibcite{Thorstensen2005J1023}{{245}{2005b}{{{Thorstensen} \& {Armstrong}}}{{{Thorstensen} \& {Armstrong}}}}
\bibcite{KamHo1998}{{246}{1998}{{{Tin Kam Ho}}}{{{Tin Kam Ho}}}}
\bibcite{atlasrefcat}{{247}{2018}{{{Tonry} et~al.}}{{{Tonry} et~al.,}}}
\bibcite{Truemper1978}{{248}{1978}{{{Truemper} et~al.}}{{{Truemper}, {Pietsch}, {Reppin}, {Voges}, {Staubert} \& {Kendziorra}}}}
\bibcite{VanderPlas2018}{{249}{2018}{{VanderPlas}}{{VanderPlas}}}
\bibcite{VanderPlas2015}{{250}{2015}{{{VanderPlas} \& {Ivezi{\'c}}}}{{{VanderPlas} \& {Ivezi{\'c}}}}}
\bibcite{Verbiest2008}{{251}{2008}{{{Verbiest} et~al.}}{{{Verbiest} et~al.,}}}
\bibcite{Verbunt1995}{{252}{1995}{{Verbunt \& Phinney}}{{Verbunt \& Phinney}}}
\bibcite{Verbunt1981}{{253}{1981}{{Verbunt \& Zwaan}}{{Verbunt \& Zwaan}}}
\bibcite{Voisin2020}{{254}{2020}{{{Voisin} et~al.}}{{{Voisin}, {Kennedy}, {Breton}, {Clark} \& {Mata-S{\'a}nchez}}}}
\bibcite{Wade1988}{{255}{1988}{{{Wade} \& {Horne}}}{{{Wade} \& {Horne}}}}
\bibcite{Wang2009}{{256}{2009}{{{Wang} et~al.}}{{{Wang}, {Archibald}, {Thorstensen}, {Kaspi}, {Lorimer}, {Stairs} \& {Ransom}}}}
\bibcite{Watson2007}{{257}{2007}{{{Watson} et~al.}}{{{Watson}, {Steeghs}, {Shahbaz} \& {Dhillon}}}}
\bibcite{Weisberg2010}{{258}{2010}{{Weisberg et~al.}}{{Weisberg, Nice \& Taylor}}}
\bibcite{Wheaton1979}{{259}{1979}{{{Wheaton} et~al.}}{{{Wheaton}, Doty, Primini, Cooke \& Dobson}}}
\bibcite{Witte1999}{{260}{1999}{{Witte \& Savonije}}{{Witte \& Savonije}}}
\bibcite{Woudt2004}{{261}{2004}{{{Woudt} et~al.}}{{{Woudt}, {Warner} \& {Pretorius}}}}
\bibcite{WISE}{{262}{2010}{{{Wright} et~al.}}{{{Wright} et~al.,}}}
\bibcite{Young1999}{{263}{1999}{{{Young} et~al.}}{{{Young}, {Manchester} \& {Johnston}}}}
\bibcite{Zechmeister2009}{{264}{2009}{{Zechmeister \& K\IeC {\"u}rster}}{{Zechmeister \& K\IeC {\"u}rster}}}
\bibcite{Zilles2020}{{265}{2020}{{{Zilles} et~al.}}{{{Zilles}, {Kotera}, {Rohrmann} \& {Althaus}}}}
\bibcite{demartino2010J1227}{{266}{2010a}{{{de Martino} et~al.}}{{{de Martino} et~al.,}}}
\bibcite{deMartino2010}{{267}{2010b}{{{de Martino} et~al.}}{{{de Martino} et~al.,}}}
\bibcite{deMartino2012}{{268}{2013}{{{de Martino} et~al.}}{{{de Martino} et~al.,}}}
\bibcite{J1227-mart}{{269}{2014a}{{de~Martino et~al.}}{{de Martino et~al.,}}}
\bibcite{deMartino2014}{{270}{2014b}{{de~Martino et~al.}}{{de Martino et~al.,}}}
\bibcite{deMartino2015}{{271}{2015}{{{de Martino} et~al.}}{{{de Martino} et~al.,}}}
\bibcite{deWit2012}{{272}{2012}{{{de Wit} et~al.}}{{{de Wit}, {Gillon}, {Demory} \& {Seager}}}}
\bibcite{VanKerkwijk2011}{{273}{2011}{{van Kerkwijk et~al.}}{{van Kerkwijk, Breton \& Kulkarni}}}
\bibcite{vandenHeuvel1988}{{274}{1988}{{{van den Heuvel} \& {van Paradijs}}}{{{van den Heuvel} \& {van Paradijs}}}}
